Combination,MSE
"('Aluminum, Al', 'Chromium, Cr', 'Titanium, Ti')",0.41811537742614746
"('Aluminum, Al', 'Molybdenum, Mo', 'Titanium, Ti')",0.4180215895175934
"('Aluminum, Al', 'Silicon, Si', 'Titanium, Ti')",0.4264233410358429
"('Aluminum, Al', 'Iron, Fe', 'Titanium, Ti')",0.5279040336608887
"('Aluminum, Al', 'Nitrogen, N', 'Titanium, Ti')",0.41805028915405273
"('Aluminum, Al', 'Oxygen, O', 'Titanium, Ti')",0.41534289717674255
"('Aluminum, Al', 'Carbon, C', 'Titanium, Ti')",0.4177514612674713
"('Aluminum, Al', 'Tin, Sn', 'Titanium, Ti')",0.4178782105445862
"('Aluminum, Al', 'Zirconium, Zr', 'Titanium, Ti')",0.4230719804763794
"('Chromium, Cr', 'Molybdenum, Mo', 'Titanium, Ti')",0.44115447998046875
"('Chromium, Cr', 'Silicon, Si', 'Titanium, Ti')",0.4262576103210449
"('Chromium, Cr', 'Iron, Fe', 'Titanium, Ti')",0.4344221353530884
"('Chromium, Cr', 'Nitrogen, N', 'Titanium, Ti')",0.4177904427051544
"('Chromium, Cr', 'Oxygen, O', 'Titanium, Ti')",0.4257003962993622
"('Chromium, Cr', 'Carbon, C', 'Titanium, Ti')",0.4180248975753784
"('Chromium, Cr', 'Tin, Sn', 'Titanium, Ti')",0.4141944348812103
"('Chromium, Cr', 'Zirconium, Zr', 'Titanium, Ti')",0.42221665382385254
"('Molybdenum, Mo', 'Silicon, Si', 'Titanium, Ti')",0.41210126876831055
"('Molybdenum, Mo', 'Iron, Fe', 'Titanium, Ti')",0.43690645694732666
"('Molybdenum, Mo', 'Nitrogen, N', 'Titanium, Ti')",0.41812455654144287
"('Molybdenum, Mo', 'Oxygen, O', 'Titanium, Ti')",0.46925029158592224
"('Molybdenum, Mo', 'Carbon, C', 'Titanium, Ti')",0.46780213713645935
"('Molybdenum, Mo', 'Tin, Sn', 'Titanium, Ti')",0.4176715612411499
"('Molybdenum, Mo', 'Zirconium, Zr', 'Titanium, Ti')",0.418091744184494
"('Silicon, Si', 'Iron, Fe', 'Titanium, Ti')",0.4446811079978943
"('Silicon, Si', 'Nitrogen, N', 'Titanium, Ti')",0.4269981384277344
"('Silicon, Si', 'Oxygen, O', 'Titanium, Ti')",0.4278237819671631
"('Silicon, Si', 'Carbon, C', 'Titanium, Ti')",0.41638118028640747
"('Silicon, Si', 'Tin, Sn', 'Titanium, Ti')",0.4180280268192291
"('Silicon, Si', 'Zirconium, Zr', 'Titanium, Ti')",0.4181409180164337
"('Iron, Fe', 'Nitrogen, N', 'Titanium, Ti')",0.4352671802043915
"('Iron, Fe', 'Oxygen, O', 'Titanium, Ti')",0.4312126338481903
"('Iron, Fe', 'Carbon, C', 'Titanium, Ti')",0.42858850955963135
"('Iron, Fe', 'Tin, Sn', 'Titanium, Ti')",0.41826900839805603
"('Iron, Fe', 'Zirconium, Zr', 'Titanium, Ti')",0.4042894244194031
"('Nitrogen, N', 'Oxygen, O', 'Titanium, Ti')",0.435343474149704
"('Nitrogen, N', 'Carbon, C', 'Titanium, Ti')",0.43574365973472595
"('Nitrogen, N', 'Tin, Sn', 'Titanium, Ti')",0.45787057280540466
"('Nitrogen, N', 'Zirconium, Zr', 'Titanium, Ti')",0.4376741647720337
"('Oxygen, O', 'Carbon, C', 'Titanium, Ti')",0.4333922564983368
"('Oxygen, O', 'Tin, Sn', 'Titanium, Ti')",0.42375248670578003
"('Oxygen, O', 'Zirconium, Zr', 'Titanium, Ti')",1.4457812309265137
"('Carbon, C', 'Tin, Sn', 'Titanium, Ti')",0.44828420877456665
"('Carbon, C', 'Zirconium, Zr', 'Titanium, Ti')",0.42063722014427185
"('Tin, Sn', 'Zirconium, Zr', 'Titanium, Ti')",0.41804057359695435
