Alloy 1: Composition = [12.6333186   6.26204412  9.52958472  9.10929981  2.60014268  8.42847226
 11.95187265 13.28001553 11.20250623 15.00274341], Score = 3.3004662387802717
Alloy 2: Composition = [ 9.00307947 16.70009781  5.34628551  7.03680398  8.13513462  6.61842462
 13.32825224  8.9277108  16.1506625   8.75354845], Score = 2.5531744145288977
Alloy 3: Composition = [ 1.93368351  1.09843503  1.88797235  3.13424939 24.05234204  5.27567079
  0.80396785 26.29175375 23.01994164 12.50198364], Score = 0.6643938771725966
Alloy 4: Composition = [13.78298795  8.34444876 14.49924346  8.11469938 10.20780989  9.4727789
 13.62466379  9.22074142  5.40487765  7.3277488 ], Score = 2.43548184049688
Alloy 5: Composition = [ 3.15453267 12.20575394  7.0591999  13.45827204 14.04300142 16.43917909
 14.42446563  1.69118199  5.63222201 11.89219132], Score = -1.2332209998981183
Alloy 6: Composition = [14.93349035  2.81240683 15.5500796  17.27724784  4.98064798 18.09776905
  0.12097939  2.71154762 14.67301025  8.84282109], Score = 0.04276109429721986
Alloy 7: Composition = [18.98194948 13.57966289 19.20378161  5.09804632 11.66859885 21.8615173
  5.42706701  2.51525837  0.70854476  0.95557342], Score = 1.8108302499089226
Alloy 8: Composition = [ 1.97024897  8.25236592 13.71729736 10.17491301  8.0279841  13.63645778
 14.68785944 10.64780936 10.79283358  8.09223047], Score = 3.2686753768574093
Alloy 9: Composition = [ 5.17672238 10.53196237  9.91755887 16.0303256  15.73903993  0.429433
 11.66737452  0.78190632 16.99453291 12.7311441 ], Score = -1.9953008964857308
Alloy 10: Composition = [16.2834246   5.52827321 11.10816543  3.59635295  6.31482761  4.7242047
  2.71143132 20.92293552 22.56382202  6.24656265], Score = 4.497803674673819
Alloy 11: Composition = [ 4.56406309  9.87262463 12.765635   10.00397638 14.05033993  9.44982168
 11.7345723  11.59615905  1.98571933 13.97708861], Score = 0.12641295249294027
Alloy 12: Composition = [ 0.85326714 17.14531356  5.74430445 15.23285841 13.09670943  7.82186043
 11.53597922  4.84329578 10.50260947 13.22380211], Score = -0.4449398952743293
Alloy 13: Composition = [ 0.9894142   4.62834073  0.40130618  3.62978153 26.90663321  3.86964565
  1.55540989 21.555561   10.95260633 25.51130129], Score = -4.000326011026751
Alloy 14: Composition = [ 8.40008176 13.16956704 12.84479771 12.53688749  7.40989205  9.09462614
 13.76303304  5.58597405  4.38178245 12.81335827], Score = 0.6087494990746406
Alloy 15: Composition = [11.8945961   8.77887187  7.02245946 13.90452656  5.59148864 14.04282214
 12.11885898  4.64112149 15.24490548  6.76034927], Score = 2.259513042163102
Alloy 16: Composition = [ 4.2531728  13.81274007  4.1025099  11.46214748  3.97443366  7.38217908
 19.25446828 12.66258884 11.55486711 11.54089276], Score = 4.211597808341644
Alloy 17: Composition = [ 2.0824406  13.25899859  9.39746375 13.69950992 14.50143797 14.81358665
  6.53313061 13.39879664  4.39009822  7.92453705], Score = 1.768564516387392
Alloy 18: Composition = [ 0.82739304  1.97739386  3.29845238  6.97459336  4.09093714 15.29498501
 14.87138777 10.42266566 25.2704617  16.97173009], Score = 2.0492076131631203
Alloy 19: Composition = [ 1.01065516 24.99489516  5.28433529  5.25688414 10.90418115  4.43688147
  7.02554153  7.21416524 16.78591582 17.08654505], Score = -1.4844045521353497
Alloy 20: Composition = [12.84631255 21.68767836 16.35060682  2.66534855  7.20340901  6.60061694
 10.22441742  7.00051251  6.2920629   9.12903493], Score = 0.7243123935461073
Alloy 21: Composition = [16.38142837  7.54833365 16.32819516 13.06770536  1.00778506  0.46203542
  7.90597827 13.48187185  6.35424183 17.46242505], Score = 2.699681945747308
Alloy 22: Composition = [ 8.45803375 10.24040921 10.59938887  8.94117582 10.96789237  7.5860559
 10.36160305  8.4082     10.60297419 13.83426683], Score = 0.655405008799496
Alloy 23: Composition = [ 0.92365803 12.61537564  9.02490189 25.0460748   3.33159748 19.03026383
  4.16955151  5.12469798 17.13753444  3.59634439], Score = 3.3755382975954875
Alloy 24: Composition = [17.24031431  3.45041373  2.67898959  6.54518518 14.12437356 12.15259733
 16.37770508 12.12126443  9.39897576  5.91018101], Score = 3.376159287218386
Alloy 25: Composition = [15.13886913 13.40468989  1.94952288  7.96495441  9.75449969  9.35611399
  8.92706875 14.27164448 18.83385003  0.39878675], Score = 4.536663766848688
