Alloy 1: Composition = [75.          5.4813211   3.04438354 10.01499357  5.44621523  1.01308655], Score = 2.4754720663920566
Alloy 2: Composition = [75.         12.96941506  1.08600559  3.64286354  4.22440581  3.07731002], Score = 2.176132387560053
Alloy 3: Composition = [75.          5.57551871  0.          4.10798304 11.40951363  3.90698462], Score = 2.070464449442231
Alloy 4: Composition = [75.          7.10257084  9.02486973  0.          4.19391647  4.67864296], Score = 3.484348126816219
Alloy 5: Composition = [75.          0.3247166   5.50179579  8.23927812  7.74507812  3.18913138], Score = 3.2973526271701448
Alloy 6: Composition = [7.50000000e+01 6.36124671e+00 6.50571629e+00 1.77635684e-15
 1.20607324e+01 7.23045968e-02], Score = 2.8918700885160575
Alloy 7: Composition = [75.          8.81120504  4.56980654  5.28356493  1.52539088  4.81003261], Score = 3.1355514008964245
Alloy 8: Composition = [7.50000000e+01 8.89268527e+00 0.00000000e+00 1.43457283e+01
 1.76158645e+00 4.44089210e-16], Score = 1.7247879806529094
Alloy 9: Composition = [75.          1.41973984  9.17838541 11.64196079  1.9687821   0.79113186], Score = 3.862605969642593
Alloy 10: Composition = [75.          7.76967247  6.65613191  0.          0.         10.57419562], Score = 3.5912197167158473
Alloy 11: Composition = [7.50000000e+01 2.22044605e-16 1.58618486e+01 4.32818096e+00
 4.80997042e+00 4.09828421e-15], Score = 4.594114632776684
Alloy 12: Composition = [7.50000000e+01 5.76453377e+00 4.78592159e+00 4.36438808e+00
 1.31422651e-14 1.00851565e+01], Score = 3.6845835240358737
Alloy 13: Composition = [7.50000000e+01 9.75924335e+00 4.90442113e+00 4.44089210e-16
 6.39256653e-01 9.69707887e+00], Score = 3.2026380345258794
Alloy 14: Composition = [75.          0.         13.8117101   3.40344355  7.20513109  0.57971526], Score = 4.3569761689660655
Alloy 15: Composition = [7.50000000e+01 1.23421625e+00 5.29521726e+00 0.00000000e+00
 1.84705665e+01 3.55271368e-15], Score = 2.683673968269276
Alloy 16: Composition = [7.50000000e+01 6.32801464e+00 1.11022302e-15 3.10862447e-15
 9.80738750e+00 8.86459786e+00], Score = 2.6506413928310137
Alloy 17: Composition = [75.          3.83905964 13.79504875  0.59929735  3.96643139  2.80016286], Score = 4.1310474255108645
Alloy 18: Composition = [75.          7.87676982  7.98921123  4.89908499  4.23493396  0.        ], Score = 3.221357937989735
Alloy 19: Composition = [7.50000000e+01 5.99965348e+00 0.00000000e+00 7.39844247e+00
 4.44089210e-16 1.16019041e+01], Score = 3.1108417999666536
Alloy 20: Composition = [7.50000000e+01 6.86454680e+00 8.84597895e+00 1.44152336e+00
 2.57918686e-14 7.84795088e+00], Score = 3.774704624955328
Alloy 21: Composition = [7.50000000e+01 6.45552795e+00 8.47828825e+00 4.44089210e-16
 5.88853403e+00 4.17764977e+00], Score = 3.4278690722926504
Alloy 22: Composition = [7.50000000e+01 5.41721512e+00 3.65501117e+00 5.55600216e+00
 1.03717715e+01 3.16413562e-14], Score = 2.4010873665589743
Alloy 23: Composition = [75.         12.27546457  0.          4.646102    7.94844415  0.12998928], Score = 1.562997514883388
Alloy 24: Composition = [7.50000000e+01 1.40616077e+01 2.49969723e+00 2.22044605e-16
 1.08135455e+00 7.35734053e+00], Score = 2.488229405515132
Alloy 25: Composition = [75.          4.82334821  2.25966355  3.92520132  0.72467746 13.26710946], Score = 3.661943806326983
