Combination,MSE
"('Chromium, Cr', 'Aluminum, Al', 'Nickel, Ni')",0.5742387175559998
"('Chromium, Cr', 'Silicon, Si', 'Nickel, Ni')",0.5201103091239929
"('Chromium, Cr', 'Phosphorus, P', 'Nickel, Ni')",0.5378301739692688
"('Chromium, Cr', 'Carbon, C', 'Nickel, Ni')",0.6274635791778564
"('Chromium, Cr', 'Cobalt, Co', 'Nickel, Ni')",0.5178499221801758
"('Chromium, Cr', 'Molybdenum, Mo', 'Nickel, Ni')",0.6313955783843994
"('Chromium, Cr', 'Titanium, Ti', 'Nickel, Ni')",0.6642422676086426
"('Chromium, Cr', 'Niobium, Nb (Columbium, Cb)', 'Nickel, Ni')",0.6784300804138184
"('Chromium, Cr', 'Iron, Fe', 'Nickel, Ni')",1.8502438068389893
"('Chromium, Cr', 'Copper, Cu', 'Nickel, Ni')",0.5372802019119263
"('Aluminum, Al', 'Silicon, Si', 'Nickel, Ni')",1.1165188550949097
"('Aluminum, Al', 'Phosphorus, P', 'Nickel, Ni')",0.5396233797073364
"('Aluminum, Al', 'Carbon, C', 'Nickel, Ni')",0.537407636642456
"('Aluminum, Al', 'Cobalt, Co', 'Nickel, Ni')",0.5365122556686401
"('Aluminum, Al', 'Molybdenum, Mo', 'Nickel, Ni')",0.5591963529586792
"('Aluminum, Al', 'Titanium, Ti', 'Nickel, Ni')",0.6633942723274231
"('Aluminum, Al', 'Niobium, Nb (Columbium, Cb)', 'Nickel, Ni')",0.5383012294769287
"('Aluminum, Al', 'Iron, Fe', 'Nickel, Ni')",0.5619028806686401
"('Aluminum, Al', 'Copper, Cu', 'Nickel, Ni')",0.538105845451355
"('Silicon, Si', 'Phosphorus, P', 'Nickel, Ni')",0.585909366607666
"('Silicon, Si', 'Carbon, C', 'Nickel, Ni')",0.5597914457321167
"('Silicon, Si', 'Cobalt, Co', 'Nickel, Ni')",0.5889478921890259
"('Silicon, Si', 'Molybdenum, Mo', 'Nickel, Ni')",0.8164034485816956
"('Silicon, Si', 'Titanium, Ti', 'Nickel, Ni')",0.6382008194923401
"('Silicon, Si', 'Niobium, Nb (Columbium, Cb)', 'Nickel, Ni')",0.8838324546813965
"('Silicon, Si', 'Iron, Fe', 'Nickel, Ni')",0.6094059348106384
"('Silicon, Si', 'Copper, Cu', 'Nickel, Ni')",0.6752951145172119
"('Phosphorus, P', 'Carbon, C', 'Nickel, Ni')",0.7223124504089355
"('Phosphorus, P', 'Cobalt, Co', 'Nickel, Ni')",0.5384348034858704
"('Phosphorus, P', 'Molybdenum, Mo', 'Nickel, Ni')",0.5375407934188843
"('Phosphorus, P', 'Titanium, Ti', 'Nickel, Ni')",0.5368422269821167
"('Phosphorus, P', 'Niobium, Nb (Columbium, Cb)', 'Nickel, Ni')",0.5668832659721375
"('Phosphorus, P', 'Iron, Fe', 'Nickel, Ni')",0.5369037389755249
"('Phosphorus, P', 'Copper, Cu', 'Nickel, Ni')",0.5442217588424683
"('Carbon, C', 'Cobalt, Co', 'Nickel, Ni')",0.591079831123352
"('Carbon, C', 'Molybdenum, Mo', 'Nickel, Ni')",0.5377858877182007
"('Carbon, C', 'Titanium, Ti', 'Nickel, Ni')",0.5404613018035889
"('Carbon, C', 'Niobium, Nb (Columbium, Cb)', 'Nickel, Ni')",0.9212132096290588
"('Carbon, C', 'Iron, Fe', 'Nickel, Ni')",0.5566531419754028
"('Carbon, C', 'Copper, Cu', 'Nickel, Ni')",0.5375526547431946
"('Cobalt, Co', 'Molybdenum, Mo', 'Nickel, Ni')",0.5377315282821655
"('Cobalt, Co', 'Titanium, Ti', 'Nickel, Ni')",0.4904137849807739
"('Cobalt, Co', 'Niobium, Nb (Columbium, Cb)', 'Nickel, Ni')",0.5381542444229126
"('Cobalt, Co', 'Iron, Fe', 'Nickel, Ni')",0.5369493961334229
"('Cobalt, Co', 'Copper, Cu', 'Nickel, Ni')",0.544765055179596
"('Molybdenum, Mo', 'Titanium, Ti', 'Nickel, Ni')",0.6795243620872498
"('Molybdenum, Mo', 'Niobium, Nb (Columbium, Cb)', 'Nickel, Ni')",0.5376236438751221
"('Molybdenum, Mo', 'Iron, Fe', 'Nickel, Ni')",0.5159205198287964
"('Molybdenum, Mo', 'Copper, Cu', 'Nickel, Ni')",0.5484375953674316
"('Titanium, Ti', 'Niobium, Nb (Columbium, Cb)', 'Nickel, Ni')",0.538193941116333
"('Titanium, Ti', 'Iron, Fe', 'Nickel, Ni')",0.5410193204879761
"('Titanium, Ti', 'Copper, Cu', 'Nickel, Ni')",0.5383251905441284
"('Niobium, Nb (Columbium, Cb)', 'Iron, Fe', 'Nickel, Ni')",0.572399377822876
"('Niobium, Nb (Columbium, Cb)', 'Copper, Cu', 'Nickel, Ni')",0.677401065826416
"('Iron, Fe', 'Copper, Cu', 'Nickel, Ni')",0.5770210027694702
