Sr. No.,Alloy Name,Chemical Formula,Young's modulus,Yield strength,Tensile strength,Fatigue Strength,Specific heat,Coefficient of Thermal Expansion
,,,(GPa),(MPa),(MPa),(MPa),(J/kgK),(x 10^-5)
1,EN 1.4869 cast nickel,GX50NiCrCoW35-25-15-5,210,310,540,130,460,1.3
2,EN 1.4889 cast nickel,GX40NiCrNb45-35,200,270,500,110,480,1.4
3,EN 2.4680 cast nickel,G-NiCr50Nb,210,260,600,120,480,1.5
4,EN 2.4815 cast nickel,G-NiCr15,190,220,460,89,470,1
5,EN 2.4879 cast nickel,G-NiCr28W,200,270,490,110,460,1.3
6,UNS N08826 cast nickel,NiFeCrMoCuNb,200,270,580,170,460,1.3
7,UNS J30002 cast nickel,NiMoCrFeW,220,310,560,130,410,1.2
8,UNS J26455 cast nickel,NiCrMo,210,310,560,190,430,1.2
9,UNS J30107 cast nickel,NiCrMo,220,310,560,210,430,1.2
10,UNS J26625 cast nickel,NiCrMoNb,200,310,540,210,440,1.2
11,UNS N26059 cast nickel,NiCrMo,220,310,550,260,430,1.2
12,UNS N26022 cast nickel,NiCrMoFeW,220,350,620,260,430,1.2
13,UNS J06040 cast nickel,NiCr,190,220,540,160,470,1.2
14,UNS J02100 cast nickel,Ni,180,140,390,68,450,1.1
15,UNS J24130 cast nickel,NiCuNb,160,250,510,170,430,1.3
16,UNS J24030 cast nickel,NiCuSi,160,470,770,230,440,1.3
17,UNS J24135 cast nickel,NiCu,160,190,500,130,430,1.3
18,UNS J04020 cast nickel,NiCu,160,230,500,160,430,1.3
19,UNS J30012 cast nickel,NiMoFe,220,310,600,130,390,1
20,UNS J30007 cast nickel,NiMo,220,310,590,190,390,0.99
21,EN 2.4608 nickel,NiCr26MoW,210,270,620,200,460,1.3
22,EN 2.4632 nickel,NiCr20Co18Ti,200,780,1250,430,470,1.2
23,EN 2.4633 nickel,NiCr25FeAlY,200,310,760,230,480,1.3
24,EN 2.4642 nickel,NiCr29Fe,200,270,670,200,470,1.4
25,EN 2.4650 nickel,NiCo20Cr20MoTi,210,650,1090,480,450,1.1
26,EN 2.4654 nickel,NiCr20Co13Mo4Ti3Al,200,850,1250,460,460,1.2
27,EN 2.4663 nickel,NiCr23Co12Mo,210,310,780,250,450,1.2
28,EN 2.4665 nickel,NiCr22Fe18Mo,210,300,790,220,450,1.4
29,EN 2.4668 nickel,NiCr19Fe19Nb5Mo3,190,1160,1390,590,450,1.3
30,EN 2.4669 nickel,NiCr15Fe7TiAl,190,720,1110,390,460,1.3
31,EN 2.4816 nickel,NiCr15Fe,190,270,700,200,460,1.3
32,EN 2.4851 nickel,NiCr23Fe,200,230,650,170,470,1.4
33,EN 2.4856 nickel,NiCr22Mo9Nb,200,430,880,280,440,1.1
34,EN 2.4878 nickel,NiCr25Co20TiMo,200,780,1250,400,460,1.2
35,EN 2.4889 nickel,NiCr28FeSiCe,200,270,720,210,480,1.4
36,EN 2.4951 nickel,NiCr20Ti,190,270,750,200,460,1.2
37,EN 2.4952 nickel,NiCr20TiAl,190,670,1150,370,470,1.3
38,Annealed Monel 400,NiCu30Fe,160,210,540,230,430,1.4
39,Cold worked Monel 400,NiCu30Fe,160,590,780,280,430,1.4
40,Hot worked Monel 400,NiCu30Fe,160,260,600,290,430,1.4
41,Annealed Monel K-500,NiCu30Al,160,310,640,260,440,1.4
42,Cold worked Monel K-500,NiCu30Al,160,880,1100,560,440,1.4
43,Hot worked Monel K-500,NiCu30Al,160,410,770,300,440,1.4
44,Annealed Monel R-405,NiCu,160,190,540,210,430,1.4
45,Cold worked Monel R-405,NiCu,160,350,630,250,430,1.4
46,Hot worked Monel R-405,NiCu,160,240,540,250,430,1.4
47,Annealed nickel 200,Ni,180,120,420,230,450,1.3
48,Cold worked nickel 200,Ni,180,370,540,350,450,1.3
49,Hot worked nickel 200,Ni,180,150,480,120,450,1.3
50,Nickel 22,NiCr21Mo14W,220,360,790,330,430,1.1
51,Nickel 242,NiMoCr,220,350,820,300,400,1.1
52,Nickel 30,NiCrFeMoWCuNb,210,270,660,200,450,1.3
53,Nickel 333,NiCrFeMoWCo,210,270,630,200,450,1.3
54,Nickel 59,NiCr23Mo16Al,220,350,780,320,430,1.7
55,Annealed nickel 600,NiCrFe,190,280,650,270,460,1.3
56,Hot worked nickel 600,NiCrFe,190,270,660,280,460,1.3
57,Annealed nickel 601,NiCrFeAl,200,290,660,220,470,1.4
58,Cold worked nickel 601,NiCrFeAl,200,800,890,380,470,1.4
59,Nickel 617,NiCrCoMoAl,210,280,740,220,450,1.2
60,Grade 1 nickel 625,NiCrMoNb,200,450,910,320,440,1.3
61,Grade 2 nickel 625,NiCrMoNb,200,320,790,240,440,1.3
62,Nickel 684,NiCrCoMoAlTi,200,800,1190,390,470,1.3
63,Nickel 685,NiCrCoMoAlTi,200,850,1250,470,460,1.2
64,Nickel 686,NiCrMoW,220,350,780,410,420,1.2
65,Nickel 689,NiCrCoMoAlTi,210,690,1250,420,450,1.2
66,Annealed nickel 690,NiCrFe,200,250,640,180,470,1.4
67,Hot worked nickel 690,NiCrFe,200,270,660,180,470,1.4
68,Nickel 693,NiCrFeAlNb,200,310,660,230,480,1.3
69,Nickel 725,NiCrFeMoNbTi,200,350,860,260,440,1.3
70,Nickel 80A,NiCrTi,190,710,1040,430,470,1.3
71,Nickel 825,NiCrFeMoCuTi,200,260,650,190,460,1.4
72,Nickel 890,NiCrFeSiMo,200,230,590,180,480,1.4
73,Nickel 908,NiFeCrNbAlTi,180,930,1340,450,460,0.86
74,Annealed nickel beryllium 360,NiBe,200,380,780,260,460,1.4
75,Cold worked nickel beryllium 360,NiBe,200,1170,1190,430,460,1.4
76,Annealed type 4 nickel-iron,NiFeMo,190,270,620,220,440,1.1
77,Cold worked type 4 nickel-iron,NiFeMo,190,1040,1100,400,440,1.1
78,UNS N06002 nickel,NiCrFeMoCo,210,310,760,250,450,1.4
79,UNS N06025 nickel,NiCrFeAl,200,310,760,220,480,1.3
80,UNS N06058 nickel,NiCrMo,220,410,860,350,420,1.2
81,UNS N06110 nickel,NiCrMoW,210,330,730,320,440,1.2
82,UNS N06200 nickel,NiCr23Mo16Cu,220,320,780,290,430,1.2
83,UNS N06210 nickel,NiCrMoTa,220,350,780,320,420,1.2
84,UNS N06230 nickel,NiCr22W14Mo,210,400,840,360,420,1.3
85,UNS N06455 nickel,NiMo16Cr16Ti,210,330,780,290,430,1.1
86,UNS N06650 nickel,NiCrFeMoW,210,460,900,420,440,1.2
87,UNS N07041 nickel,NiCrCoMoFeTiAl,220,1050,1400,540,450,1.2
88,UNS N07716 nickel,NiCrMoFeNbTi,200,350,860,690,440,1.3
89,UNS N07750 nickel,NiCrFeTiNb,190,820,1200,520,460,1.2
90,UNS N07752 nickel,NiCrFeTiNb,190,740,1120,450,460,1.2
91,UNS N07776 nickel,NiCrFeMoNbW,200,270,700,220,430,1.2
92,UNS N08026 nickel,NiCrFeMoCu,200,270,620,200,460,1.5
93,UNS N08120 nickel,NiCrFe,200,310,700,230,470,1.4
94,UNS N10001 nickel,NiMoFe,220,350,780,300,390,1
95,UNS N10003 nickel,NiMoCrFe,210,320,780,260,420,1.3
96,UNS N10276 nickel,NiMo16Cr15W,220,320,780,280,410,1.1
97,UNS N10624 nickel,NiMoCrFe,220,360,810,310,410,1.1
98,UNS N10629 nickel,NiMoCoCrFe,220,400,860,340,390,1
99,UNS N10675 nickel,NiMo29Cr,220,400,860,350,380,1.1
100,UNS N12160 nickel,NiCoCrSi,210,270,710,230,470,1.3