/search/DataSheet.aspx?MatGUID=74ef50575620435fb35d8ce71c02bf5f
/search/DataSheet.aspx?MatGUID=67fa26b801054645b2b5e3831be17a04
/search/DataSheet.aspx?MatGUID=944e5cf3f9fd46759c9ef60e8bca8a1e
/search/DataSheet.aspx?MatGUID=976b779acd04457a933cac0d332421cd
/search/DataSheet.aspx?MatGUID=15da6132b4284fb4a0197c7c9b91430b
/search/DataSheet.aspx?MatGUID=501b0b4fb32244b2a6dbcc2cf31c0beb
/search/DataSheet.aspx?MatGUID=fb9de62adfb84f4594008dd9f4208fe9
/search/DataSheet.aspx?MatGUID=ddd57d38132244339b58d5b11a905664
/search/DataSheet.aspx?MatGUID=8d600971673b4f89979328fdf800f01c
/search/DataSheet.aspx?MatGUID=6118ee4ce8cb44ae812d9fe2a76ec46a
/search/DataSheet.aspx?MatGUID=0eb7cddb6cad4f32a191fab2e4527c06
/search/DataSheet.aspx?MatGUID=30bf4eda42ec4bf68fa1d44853123600
/search/DataSheet.aspx?MatGUID=7315527d47264abbaa979c67cc814d7a
/search/DataSheet.aspx?MatGUID=1251b5a7e1d84a839f3602019f184559
/search/DataSheet.aspx?MatGUID=eaa62becf9384daeb7db80aaf1da85f7
/search/DataSheet.aspx?MatGUID=74ef50575620435fb35d8ce71c02bf5f
/search/DataSheet.aspx?MatGUID=67fa26b801054645b2b5e3831be17a04
/search/DataSheet.aspx?MatGUID=944e5cf3f9fd46759c9ef60e8bca8a1e
/search/DataSheet.aspx?MatGUID=976b779acd04457a933cac0d332421cd
/search/DataSheet.aspx?MatGUID=15da6132b4284fb4a0197c7c9b91430b
/search/DataSheet.aspx?MatGUID=501b0b4fb32244b2a6dbcc2cf31c0beb
/search/DataSheet.aspx?MatGUID=fb9de62adfb84f4594008dd9f4208fe9
/search/DataSheet.aspx?MatGUID=ddd57d38132244339b58d5b11a905664
/search/DataSheet.aspx?MatGUID=8d600971673b4f89979328fdf800f01c
/search/DataSheet.aspx?MatGUID=6118ee4ce8cb44ae812d9fe2a76ec46a
/search/DataSheet.aspx?MatGUID=0eb7cddb6cad4f32a191fab2e4527c06
/search/DataSheet.aspx?MatGUID=30bf4eda42ec4bf68fa1d44853123600
/search/DataSheet.aspx?MatGUID=7315527d47264abbaa979c67cc814d7a
/search/DataSheet.aspx?MatGUID=1251b5a7e1d84a839f3602019f184559
/search/DataSheet.aspx?MatGUID=eaa62becf9384daeb7db80aaf1da85f7
/search/DataSheet.aspx?MatGUID=74ef50575620435fb35d8ce71c02bf5f
/search/DataSheet.aspx?MatGUID=67fa26b801054645b2b5e3831be17a04
/search/DataSheet.aspx?MatGUID=944e5cf3f9fd46759c9ef60e8bca8a1e
/search/DataSheet.aspx?MatGUID=976b779acd04457a933cac0d332421cd
/search/DataSheet.aspx?MatGUID=15da6132b4284fb4a0197c7c9b91430b
/search/DataSheet.aspx?MatGUID=501b0b4fb32244b2a6dbcc2cf31c0beb
/search/DataSheet.aspx?MatGUID=fb9de62adfb84f4594008dd9f4208fe9
/search/DataSheet.aspx?MatGUID=ddd57d38132244339b58d5b11a905664
/search/DataSheet.aspx?MatGUID=8d600971673b4f89979328fdf800f01c
/search/DataSheet.aspx?MatGUID=6118ee4ce8cb44ae812d9fe2a76ec46a
/search/DataSheet.aspx?MatGUID=0eb7cddb6cad4f32a191fab2e4527c06
/search/DataSheet.aspx?MatGUID=30bf4eda42ec4bf68fa1d44853123600
/search/DataSheet.aspx?MatGUID=7315527d47264abbaa979c67cc814d7a
/search/DataSheet.aspx?MatGUID=1251b5a7e1d84a839f3602019f184559
/search/DataSheet.aspx?MatGUID=eaa62becf9384daeb7db80aaf1da85f7
/search/DataSheet.aspx?MatGUID=74ef50575620435fb35d8ce71c02bf5f
/search/DataSheet.aspx?MatGUID=67fa26b801054645b2b5e3831be17a04
/search/DataSheet.aspx?MatGUID=944e5cf3f9fd46759c9ef60e8bca8a1e
/search/DataSheet.aspx?MatGUID=976b779acd04457a933cac0d332421cd
/search/DataSheet.aspx?MatGUID=15da6132b4284fb4a0197c7c9b91430b
/search/DataSheet.aspx?MatGUID=501b0b4fb32244b2a6dbcc2cf31c0beb
/search/DataSheet.aspx?MatGUID=fb9de62adfb84f4594008dd9f4208fe9
/search/DataSheet.aspx?MatGUID=ddd57d38132244339b58d5b11a905664
/search/DataSheet.aspx?MatGUID=8d600971673b4f89979328fdf800f01c
/search/DataSheet.aspx?MatGUID=6118ee4ce8cb44ae812d9fe2a76ec46a
/search/DataSheet.aspx?MatGUID=0eb7cddb6cad4f32a191fab2e4527c06
/search/DataSheet.aspx?MatGUID=30bf4eda42ec4bf68fa1d44853123600
/search/DataSheet.aspx?MatGUID=7315527d47264abbaa979c67cc814d7a
/search/DataSheet.aspx?MatGUID=1251b5a7e1d84a839f3602019f184559
/search/DataSheet.aspx?MatGUID=eaa62becf9384daeb7db80aaf1da85f7
/search/DataSheet.aspx?MatGUID=c224c0d0e85e4b0bb9f8110ee30b850e
/search/DataSheet.aspx?MatGUID=1afb9279197e4a728bea50071194693b
/search/DataSheet.aspx?MatGUID=9e620304850d4994b50d1aee6423e729
/search/DataSheet.aspx?MatGUID=7a3996d6aff2428e812f7f937003ba35
/search/DataSheet.aspx?MatGUID=2bc47cb2d6c14725b21b88577c72cfa5
/search/DataSheet.aspx?MatGUID=8b92278287c54b5cbe0fa5ec251422c4
/search/DataSheet.aspx?MatGUID=47a05584cdd641abaa4209adfa86fd45
/search/DataSheet.aspx?MatGUID=28a7c807b1c7407eb527fb6e9fe9efbf
/search/DataSheet.aspx?MatGUID=87ba2246b58e431d8cb4e59a0b9a9c58
/search/DataSheet.aspx?MatGUID=d4a84f06d085480389dfde4f5e62d6e4
/search/DataSheet.aspx?MatGUID=e86dbcfe6f9442e89b11c037be214343
/search/DataSheet.aspx?MatGUID=48e8f6f5218c440a83b3e527990b9c74
/search/DataSheet.aspx?MatGUID=83300555b98d425593b1b563d2c1a3bf
/search/DataSheet.aspx?MatGUID=b549f1f613b64a969a4c5cbf6b4b3066
/search/DataSheet.aspx?MatGUID=3994f80ced0d4e7697a46e8f0df80e07
/search/DataSheet.aspx?MatGUID=717d071a237d49eb940acc54ee32b95b
/search/DataSheet.aspx?MatGUID=1efa50f6080740dca4d2db99b84e7dc5
/search/DataSheet.aspx?MatGUID=033a2f23115c4880a6ac77cdfde296e1
/search/DataSheet.aspx?MatGUID=2a0fa6a84ed44037a065d688aff203ee
/search/DataSheet.aspx?MatGUID=8231459922da45b6a528ca1017dbc58d
/search/DataSheet.aspx?MatGUID=d182b97042744decade22f3579890b9c
/search/DataSheet.aspx?MatGUID=3c8924437ca9405eab7cc66ea1273806
/search/DataSheet.aspx?MatGUID=ada0fabb64c4484ab4f42d4089c0933e
/search/DataSheet.aspx?MatGUID=ded34be095ae4367bc0941805c8e2e3c
/search/DataSheet.aspx?MatGUID=c20690172a8947738d17a554e2b221b2
/search/DataSheet.aspx?MatGUID=cd1778311bd04c5bad6cc5a004a624ac
/search/DataSheet.aspx?MatGUID=93aef4a0c17a43809e93c8e5724612c3
/search/DataSheet.aspx?MatGUID=7f960a508c8448c48b64fb8ef747751b
/search/DataSheet.aspx?MatGUID=6cad2455ad834d9ba4637e109ac409e3
/search/DataSheet.aspx?MatGUID=6ef7f6fbb1bc4449a294592d2b37d12b
/search/DataSheet.aspx?MatGUID=86a35325b1b34297ac4e09b05a43ed1f
/search/DataSheet.aspx?MatGUID=c570f61560d244be90ad904de85453c9
/search/DataSheet.aspx?MatGUID=4df3632d966346d08e6dc5e106c7aced
/search/DataSheet.aspx?MatGUID=70ef090e1b8348f7820affa977b59aef
/search/DataSheet.aspx?MatGUID=238f0193c40d4e1ea42fcb3d0b99510a
/search/DataSheet.aspx?MatGUID=764d6f8cf4d7425ebe23ef70e5d0a42e
/search/DataSheet.aspx?MatGUID=32621e6b206144b9a64691a83d3344b4
/search/DataSheet.aspx?MatGUID=f0842dcb06ad4d12a46b864f49068136
/search/DataSheet.aspx?MatGUID=79d34f98e4a84323a1e9d510aec76021
/search/DataSheet.aspx?MatGUID=7d9bd321db5148058570e8a5c2c17b65
/search/DataSheet.aspx?MatGUID=2c8aaca715f749ada6f506b39c470d22
/search/DataSheet.aspx?MatGUID=59b7ac1aeed24f11ae40b96959d1a3ab
/search/DataSheet.aspx?MatGUID=c28d01cf8f734d9e8d1c9de3645c5581
/search/DataSheet.aspx?MatGUID=cd3e28d4b0c6439092fa2601c8069847
/search/DataSheet.aspx?MatGUID=1ea5bcb6511d42f6aa5772a54d33085f
/search/DataSheet.aspx?MatGUID=fbeea0dfe41440e6a24d599f5f2ac537
/search/DataSheet.aspx?MatGUID=d1b4004f15744ba8a1e6e205970d795d
/search/DataSheet.aspx?MatGUID=98042e4e6088426dafc022af1449de62
/search/DataSheet.aspx?MatGUID=1e9687d919244e51a7d0a7fc0459b356
/search/DataSheet.aspx?MatGUID=7bf10705e0494dfbbc07626e82729b04
/search/DataSheet.aspx?MatGUID=ba21dac525d44344a68aa93cda906b79
/search/DataSheet.aspx?MatGUID=d79a3e1ffa6f4cfa8c3083b7dbdb4f89
/search/DataSheet.aspx?MatGUID=d307e63b36044fec9f039fe95ee0343b
/search/DataSheet.aspx?MatGUID=9bcbd98b380e40bdaf3b806611a5f276
/search/DataSheet.aspx?MatGUID=a7c1135b6c454b67b52904d623d33abe
/search/DataSheet.aspx?MatGUID=4a8814312d3c4e46b6f566bd6873b065
/search/DataSheet.aspx?MatGUID=4288fb89283845de9bb597e5f6bd4b9b
/search/DataSheet.aspx?MatGUID=8f9e333bb12f4b52902afed292f4110f
/search/DataSheet.aspx?MatGUID=0ec8e06b2fe14f319159cba2336d5d73
/search/DataSheet.aspx?MatGUID=c7d40cacd4524b78963a4bf0c3364210
/search/DataSheet.aspx?MatGUID=e20db5ca6e924c7e9ea11d0daecfdd89
/search/DataSheet.aspx?MatGUID=b510cf8aba9b4279881d6fdb8f39f08a
/search/DataSheet.aspx?MatGUID=37a7f8dee32140cc841f3f8a51046847
/search/DataSheet.aspx?MatGUID=d29f50004d954e9cbb2ff1c2302cd54b
/search/DataSheet.aspx?MatGUID=9eb0027aa33445ec97e76da9e6d3d7d4
/search/DataSheet.aspx?MatGUID=abaa5eec683341ba831d85cdcde232f1
/search/DataSheet.aspx?MatGUID=7444c51a69e941f38f6cf127821e08b8
/search/DataSheet.aspx?MatGUID=aa3e8d7a14bc41d5b90bcdd122c5c208
/search/DataSheet.aspx?MatGUID=61c77414e74c4ddf88b52c2f86592659
/search/DataSheet.aspx?MatGUID=b11bf5655a584cbf92dd7b1675b4cd0c
/search/DataSheet.aspx?MatGUID=f6f3309f48aa4a34b00a4a3c45657ed4
/search/DataSheet.aspx?MatGUID=aa21e15bb9ce4bdebef8afd3a62dafc9
/search/DataSheet.aspx?MatGUID=5c9923e20bd54eceaeae4752d9ea9bab
/search/DataSheet.aspx?MatGUID=aa53ecd3b3a044fc8585f4c42ceb14bf
/search/DataSheet.aspx?MatGUID=23a792e648e3458481cc971113026b4a
/search/DataSheet.aspx?MatGUID=0f8f9f18e17348479dfb5d2ecbb21547
/search/DataSheet.aspx?MatGUID=d1591911c7c442df84201dc09897a507
/search/DataSheet.aspx?MatGUID=8713191ee73940bcaf04dd960063dde0
/search/DataSheet.aspx?MatGUID=7195434042c646078f1da44c26741cab
/search/DataSheet.aspx?MatGUID=d4e2eeacc8474f8db96db4d899b2031c
/search/DataSheet.aspx?MatGUID=14748fe435724fadb71f0614651961c2
/search/DataSheet.aspx?MatGUID=feea0e91debd4094996cefdd7bf726f2
/search/DataSheet.aspx?MatGUID=90e9a8f1fcda41ed8380dee928aa2935
/search/DataSheet.aspx?MatGUID=21727963e323415da50476633ab76f39
/search/DataSheet.aspx?MatGUID=237df255c8324fe6a06dc004e86d86b6
/search/DataSheet.aspx?MatGUID=02989dc74d27499781538af7da1bd801
/search/DataSheet.aspx?MatGUID=9d40aceb99694b7cb59be63442cd0087
/search/DataSheet.aspx?MatGUID=ba67c8ef282d4e238a399c4003708da2
/search/DataSheet.aspx?MatGUID=dcf13a02c6d74284ba1a5317405f0fea
/search/DataSheet.aspx?MatGUID=66a15d609a3f4c829cb6ad08f0dafc01
/search/DataSheet.aspx?MatGUID=f57629c960bb4c21816943db19e32173
/search/DataSheet.aspx?MatGUID=e1790850db224b6bba34ac384bebdf68
/search/DataSheet.aspx?MatGUID=49d080bf0b104b79b12ea8fc247e7475
/search/DataSheet.aspx?MatGUID=d15ce8f73e364ca486a42b0c847142b9
/search/DataSheet.aspx?MatGUID=66876901d02c48b496739e9d4e80271d
/search/DataSheet.aspx?MatGUID=32c84374afb342d4912fdfe5ecd79fd1
/search/DataSheet.aspx?MatGUID=2dd2124aceb440b5bbeeb324f04674f3
/search/DataSheet.aspx?MatGUID=6bc0ed9c50c8473cbed3d89c616c05a1
/search/DataSheet.aspx?MatGUID=918614cbb2944926965498f93cba0959
/search/DataSheet.aspx?MatGUID=1a492f18825343f68b6f0b698fb75a64
/search/DataSheet.aspx?MatGUID=69814d8b0a4c43f9b116674067b3e154
/search/DataSheet.aspx?MatGUID=0626279b487341b386352fae80ba0574
/search/DataSheet.aspx?MatGUID=e6e3a003c8b54aecbc5c10b1482dff89
/search/DataSheet.aspx?MatGUID=b141bfe746f142638fdc30ac59aa306e
/search/DataSheet.aspx?MatGUID=547c2f77d81d45d6a4891e8ffdd49424
/search/DataSheet.aspx?MatGUID=881b10fac4314df694ab7335aeff498e
/search/DataSheet.aspx?MatGUID=f29d5dd5f8f448fca4028bece9c16467
/search/DataSheet.aspx?MatGUID=a8b5d3ec394a4c3095d5c926c846d770
/search/DataSheet.aspx?MatGUID=9e986cd2cc9b475a95089e5bd9b18987
/search/DataSheet.aspx?MatGUID=ae452b7ec2e34ff394bb51afc62b5fa6
/search/DataSheet.aspx?MatGUID=0a4b3bc6094c4bf8b522e290a8ce3010
/search/DataSheet.aspx?MatGUID=f03e3e1ab64647c8bb10ee739f40af24
/search/DataSheet.aspx?MatGUID=7d15bd8d270e4a899ca5217dd8a21b2e
/search/DataSheet.aspx?MatGUID=cda139c0fdff4eda872192e973703b34
/search/DataSheet.aspx?MatGUID=3a01802b122647028633c9fa10e6bae8
/search/DataSheet.aspx?MatGUID=66f20965748441d8916768ed80be0cba
/search/DataSheet.aspx?MatGUID=e47bdb46d3974ba2ad3be7abf1df381b
/search/DataSheet.aspx?MatGUID=7ae0a6a47d934854872c654986a52a32
/search/DataSheet.aspx?MatGUID=3fed61a67a9d48b3b177830630660ab1
/search/DataSheet.aspx?MatGUID=17e3f364f7414e85bc15d629161d5d4d
/search/DataSheet.aspx?MatGUID=37fd0a702ff247cbb824d25058209fa8
/search/DataSheet.aspx?MatGUID=74eb6c2c08f5440fb23ce6dea62247e6
/search/DataSheet.aspx?MatGUID=3a4e0310aa45410fabcc4216982c478c
/search/DataSheet.aspx?MatGUID=c155c7123ff04ebc9f4b07796942bcee
/search/DataSheet.aspx?MatGUID=00644562644f488eb22be0533c452336
/search/DataSheet.aspx?MatGUID=f76e8131f6fb427ba943a92882273970
/search/DataSheet.aspx?MatGUID=a74096c99aa6486382a9c9e1be0883c4
/search/DataSheet.aspx?MatGUID=9e8f4f54db7d4c3b9d6fcaa3171dbeab
/search/DataSheet.aspx?MatGUID=e810947a42894199adec39058992b53a
/search/DataSheet.aspx?MatGUID=ca1ec25e6ec3465bae22df7f35479041
/search/DataSheet.aspx?MatGUID=b19e19af6a3e4ba38fec56bced7040f4
/search/DataSheet.aspx?MatGUID=a51e68123a4c4ad198b714fb7b0d46cf
/search/DataSheet.aspx?MatGUID=05ab2f124e54481e86618575952d1e9f
/search/DataSheet.aspx?MatGUID=210cc72be2754b8dbc8a42bdff4d116c
/search/DataSheet.aspx?MatGUID=119692c107c648f9bbc8e74bffd6ff1c
/search/DataSheet.aspx?MatGUID=5a416b7785b1445ab00a597ae56cdd6e
/search/DataSheet.aspx?MatGUID=325d847c410942bc8e6a3fbdb9a740af
/search/DataSheet.aspx?MatGUID=1366b26eea18429eb7be04e08d5f6636
/search/DataSheet.aspx?MatGUID=17287d9bb9ee4887a6e3da0294c905e7
/search/DataSheet.aspx?MatGUID=fd55749e2f7a4715aeb166dc60c02e3d
/search/DataSheet.aspx?MatGUID=0cc14e76e32d407a85f224ed9b4d4bdc
/search/DataSheet.aspx?MatGUID=44ac2364fd05416489df42f2fe3eb387
/search/DataSheet.aspx?MatGUID=cbf96326330144248245174d1cbf7edb
/search/DataSheet.aspx?MatGUID=17c4858c1e374e0e943a9ac16a660396
/search/DataSheet.aspx?MatGUID=152b64e28dff4b4a9cc1fd952eeb1590
/search/DataSheet.aspx?MatGUID=5aebb30b1dfa4f30a1a61d2f0da1bf9f
/search/DataSheet.aspx?MatGUID=b61af1e86d58431d9273140638868ca2
/search/DataSheet.aspx?MatGUID=bd26f3c8479942598059eed621d2a643
/search/DataSheet.aspx?MatGUID=868ecf89baf3452db788047e3ff5667a
/search/DataSheet.aspx?MatGUID=092815bea98b48b690205604e78ee620
/search/DataSheet.aspx?MatGUID=9af665dd0b8b491a8245cc10e017b8be
/search/DataSheet.aspx?MatGUID=7394bcfaa2d9484f869913a608b5f523
/search/DataSheet.aspx?MatGUID=f625dad92fc140cdb8c7bc65fbb8b488
/search/DataSheet.aspx?MatGUID=71cd23a772e3457fbc68b3975aba0912
/search/DataSheet.aspx?MatGUID=26de1555df5543faa254ee7100a62b02
/search/DataSheet.aspx?MatGUID=0126eba0814b4925886b300db6054721
/search/DataSheet.aspx?MatGUID=de569caed38a4170b647be22c92359d2
/search/DataSheet.aspx?MatGUID=f82e7d4ae39444c98f2bd62bde3452b7
/search/DataSheet.aspx?MatGUID=1eb1e80083eb4763976ba34e26464f87
/search/DataSheet.aspx?MatGUID=7fd3a7ac48ad4c1c9544760c543dc3dc
/search/DataSheet.aspx?MatGUID=74608db7bb1148b7a06eb505203c7e79
/search/DataSheet.aspx?MatGUID=7e4a899acdc748939cc6baa8eb5ea567
/search/DataSheet.aspx?MatGUID=daccd265e2554c7497f4531927e3c04c
/search/DataSheet.aspx?MatGUID=87cfa13e84d3415d93bc484d80280ee9
/search/DataSheet.aspx?MatGUID=ba6943e32b354789aa61b7517ca16b00
/search/DataSheet.aspx?MatGUID=6a77538bc005424a8198efb437910961
/search/DataSheet.aspx?MatGUID=0a33368e5e074ac3b9aa6b757f601c80
/search/DataSheet.aspx?MatGUID=f6b2877f129a4c84a554f5170df9b80b
/search/DataSheet.aspx?MatGUID=d307170f553946b88ae91c1034371d22
/search/DataSheet.aspx?MatGUID=c0c78bfa221f42468e8b4159a7ad2c34
/search/DataSheet.aspx?MatGUID=11ebdb4cad594f008d79591a2654fa02
/search/DataSheet.aspx?MatGUID=82a4de2d0d954dc7bc7adb603c62adde
/search/DataSheet.aspx?MatGUID=fae78c1419d34427acda34bb222cb9da
/search/DataSheet.aspx?MatGUID=42b6484eff7a4382831c74f0d38d6206
/search/DataSheet.aspx?MatGUID=af753cc45c614bbf8fbdcccf903b3898
/search/DataSheet.aspx?MatGUID=6656227f8d9d409fb24d5a78b43ad919
/search/DataSheet.aspx?MatGUID=ba0f9db9235248e6ad16e4f12c6a33b4
/search/DataSheet.aspx?MatGUID=7cc5ab50a27c436aa953ba21893afa63
/search/DataSheet.aspx?MatGUID=b9b2308da74a4d55a41da215fb258037
/search/DataSheet.aspx?MatGUID=bcb760c01e7b447e97a61bad61d35aae
/search/DataSheet.aspx?MatGUID=90363040cbd64852a99b1bbbd8ced0f4
/search/DataSheet.aspx?MatGUID=f3e4832b557746d3b4b6dff0735a80e7
/search/DataSheet.aspx?MatGUID=631d686d5da34591b361a62c674a7283
/search/DataSheet.aspx?MatGUID=bffaa1caaf5647829384348f7fd0c7b5
/search/DataSheet.aspx?MatGUID=edb137d381a948ee8736bea73aeeaa38
/search/DataSheet.aspx?MatGUID=f55bfcbcd398456eb1ed2e2e29ca606b
/search/DataSheet.aspx?MatGUID=2707db6b9527416184d9ce34756b2671
/search/DataSheet.aspx?MatGUID=2e0594628fec49aaa19ffec5300a5b00
/search/DataSheet.aspx?MatGUID=55cb793f065e41e2b2c759dea20fd103
/search/DataSheet.aspx?MatGUID=039553f1c8c64b6bbd9ade9e062ebb19
/search/DataSheet.aspx?MatGUID=b5ad80ed13474888a3430781a31a8b99
/search/DataSheet.aspx?MatGUID=d1633499b292479e973fcb88a5f78b02
/search/DataSheet.aspx?MatGUID=398a7a06a9554ba4b297ff5995bf9bc7
/search/DataSheet.aspx?MatGUID=36203743c05e41f48f01b3c9d9e7de32
/search/DataSheet.aspx?MatGUID=367de9b34c94451e952a6fc9ed09d945
/search/DataSheet.aspx?MatGUID=d7d0eea887cb4ecd984b9f64a636b784
/search/DataSheet.aspx?MatGUID=249836fcfc764265af03f78c5bd290f8
/search/DataSheet.aspx?MatGUID=8649c58f1dd44393a0518d17d61d0f5f
/search/DataSheet.aspx?MatGUID=8bd69146d84349e799b0e77834c58b57
/search/DataSheet.aspx?MatGUID=de9dd08433714f698d513766dccea437
/search/DataSheet.aspx?MatGUID=44afc7d3c6eb4829bc2df27884fd2d6c
/search/DataSheet.aspx?MatGUID=301841cda5454e07ae80f13ec54f7648
/search/DataSheet.aspx?MatGUID=21c42db428e24ee28941377fe90877fc
/search/DataSheet.aspx?MatGUID=2b36f072631e4703bd3b9c95adf62c3e
/search/DataSheet.aspx?MatGUID=a33b3d2218204cb0b6f84724768a4176
/search/DataSheet.aspx?MatGUID=1a014f2c23aa4a6881f5643900c8400d
/search/DataSheet.aspx?MatGUID=987091618de441668e5958a4b854aa41
/search/DataSheet.aspx?MatGUID=5a8f3c3e31a54e12b6d72865b18c7f20
/search/DataSheet.aspx?MatGUID=13d7eb94386545f68baf16e409cc67fc
/search/DataSheet.aspx?MatGUID=71fff43e6722453c8c9783d017d66977
/search/DataSheet.aspx?MatGUID=4ebd793b541741f79ef93ce9baaffe50
/search/DataSheet.aspx?MatGUID=55ed9beccc9e45e2bf8abeca86e7aa32
/search/DataSheet.aspx?MatGUID=1906466d2e104dc4bbf1e33151b4cb38
/search/DataSheet.aspx?MatGUID=bb3c34f049f7483f8d8435dae2898f9a
/search/DataSheet.aspx?MatGUID=2e6f048911b240e28cd5a16f977e3459
/search/DataSheet.aspx?MatGUID=21a38a6ffc2e4932b857de46683d77a6
/search/DataSheet.aspx?MatGUID=a2db7594da064395a5a269802c08ae9b
/search/DataSheet.aspx?MatGUID=47cc69e4926f4177a13288cfc693bc99
/search/DataSheet.aspx?MatGUID=f28395df9fab4f4f9bd063b7efd657e7
/search/DataSheet.aspx?MatGUID=2883e28e07824663b8b6edac04263391
/search/DataSheet.aspx?MatGUID=e217de20d5d248d9ab0761b0f4dc07c0
/search/DataSheet.aspx?MatGUID=225199294e9c437a8c6c21190f3b02ce
/search/DataSheet.aspx?MatGUID=03255c8041654cd592d13c243e0d27da
/search/DataSheet.aspx?MatGUID=86dd0eceede84292b16b3baffddde773
/search/DataSheet.aspx?MatGUID=d1d23de7758f4cf6ae38c60a1a6120f5
/search/DataSheet.aspx?MatGUID=eb6103f7f5f94762be7c108466903888
/search/DataSheet.aspx?MatGUID=74ef50575620435fb35d8ce71c02bf5f
/search/DataSheet.aspx?MatGUID=67fa26b801054645b2b5e3831be17a04
/search/DataSheet.aspx?MatGUID=944e5cf3f9fd46759c9ef60e8bca8a1e
/search/DataSheet.aspx?MatGUID=976b779acd04457a933cac0d332421cd
/search/DataSheet.aspx?MatGUID=15da6132b4284fb4a0197c7c9b91430b
/search/DataSheet.aspx?MatGUID=501b0b4fb32244b2a6dbcc2cf31c0beb
/search/DataSheet.aspx?MatGUID=fb9de62adfb84f4594008dd9f4208fe9
/search/DataSheet.aspx?MatGUID=ddd57d38132244339b58d5b11a905664
/search/DataSheet.aspx?MatGUID=8d600971673b4f89979328fdf800f01c
/search/DataSheet.aspx?MatGUID=6118ee4ce8cb44ae812d9fe2a76ec46a
/search/DataSheet.aspx?MatGUID=0eb7cddb6cad4f32a191fab2e4527c06
/search/DataSheet.aspx?MatGUID=30bf4eda42ec4bf68fa1d44853123600
/search/DataSheet.aspx?MatGUID=7315527d47264abbaa979c67cc814d7a
/search/DataSheet.aspx?MatGUID=1251b5a7e1d84a839f3602019f184559
/search/DataSheet.aspx?MatGUID=eaa62becf9384daeb7db80aaf1da85f7
