Density,Young's Modulus,Yield Strength,Tensile Strength,Fatigue Strength,Specific Heat,Coefficient of Thermal Expansion,"Aluminum, Al","Carbon, C","Hydrogen, H","Iron, Fe","Nitrogen, N","Oxygen, O","Titanium, Ti","Vanadium, V","Molybdenum, Mo","Nickel, Ni","Sulfur, S","Boron, B","Tin, Sn","Yttrium, Y","Zirconium, Zr","Chromium, Cr","Silicon, Si","Palladium, Pd","Tantalum, Ta","Niobium, Nb (Columbium, Cb)","Copper, Cu","Manganese, Mn","Bismuth, Bi"
4.65,0.22241868100405007,-0.0033299773507964865,-0.011764513798720531,585.59,0.0825477433134047,1.9855777737430227,3.4,0.05,0.015,1.6,0.05,0.13,82.855,9.0,0.0,0.0,0.0,0.0,0.0,0.0,0.0,0.0,0.0,0.0,0.0,0.0,0.0,0.0,0.0
4.85,-0.64227956670337,0.23716838687338887,0.3035729694659539,464.1,0.0825477433134047,-0.6760637791590614,3.0,0.05,0.015,2.0,0.0,0.1,79.0,8.0,8.0,0.05,0.01,0.0,0.0,0.0,0.0,0.0,0.0,0.0,0.0,0.0,0.0,0.0,0.0
4.73,-0.047799521404518736,0.9286011840179218,0.7765791943629655,980.0,0.0825477433134047,-0.6760637791590614,2.5,0.08,0.015,0.2,0.05,0.15,77.5,12.0,0.0,0.0,0.0,0.03,2.0,0.005,6.0,0.0,0.0,0.0,0.0,0.0,0.0,0.0,0.0
4.48,0.4385932429309051,-0.0754794866180521,-0.0249035756014153,282.3,-0.43954523445383453,0.49949457337269176,6.514499999999998,0.06559999999999992,0.013724999999999982,0.24430000000000007,0.04979999999999991,0.1562999999999999,88.79125,0.0,1.548,0.0,0.0,0.0,1.3135,0.0,1.5909999999999997,0.04,0.09609999999999994,0.0,0.0,0.3,0.0,0.0,0.2380000000000002
4.65,0.924986007266329,0.5077290466255974,0.48751983470368065,290.0,-0.5046013544905151,1.3201673855175038,6.0,0.04,0.0,0.25,0.03,0.14,86.0,0.0,2.0,0.0,0.0,0.0,2.0,0.0,2.0,2.0,0.25,0.0,0.0,0.0,0.0,0.0,0.0
4.847499999999998,-1.6691087358559316,-0.093516863934866,-0.24301200152614844,228.25,-0.36955706199561555,-0.687153952296159,3.8,0.0,0.0,0.0,0.0,0.0,76.2,0.0,15.0,0.0,0.0,0.0,0.0,0.0,5.0,0.0,0.0,0.0,0.0,0.0,0.0,0.0,0.0
4.5,0.11433140004062255,-1.5365070492799782,-2.418840636052402,313.03,-0.034882076247379275,1.3201673855175038,0.0,0.06,0.013,0.3,0.05,0.35,99.227,0.0,0.0,0.0,0.0,0.0,0.0,0.0,0.0,0.0,0.0,0.0,0.0,0.0,0.0,0.0,0.0
4.7,-0.047799521404518736,0.6580405242657132,0.6189104527306283,378.0,0.0825477433134047,-0.6760637791590614,2.7,0.08,0.015,0.2,0.05,0.15,75.0,13.0,0.0,0.0,0.0,0.03,7.0,0.005,2.0,0.0,0.0,0.0,0.0,0.0,0.0,0.0,0.0
4.84,0.49263688341261885,0.2071060913453657,0.356129216676733,110.0,-0.5046013544905151,-0.4118958550335185,2.25,0.4,0.008,0.12,0.4,0.15,81.0,0.0,1.0,0.0,0.0,0.0,11.0,0.0,5.0,0.0,0.25,0.0,0.0,0.0,0.0,0.0,0.0
4.82,-0.9665414095936526,-0.22879719381097027,-0.30082387345800543,313.04,-0.15231189580816326,-1.1196707046427408,3.0,0.05,0.0,0.3,0.03,0.14,75.0,8.0,4.0,0.0,0.0,0.0,0.0,0.0,4.0,6.0,0.0,0.0,0.0,0.0,0.0,0.0,0.0
5.06,-0.047799521404518736,1.2893487303542,1.0130823068114714,670.0,0.4348372019957566,-1.2516437649741237,0.0,0.0,0.02,0.35,0.05,0.2,80.0,0.0,15.0,0.0,0.0,0.0,0.0,0.0,5.0,0.0,0.0,0.0,0.0,0.0,0.0,0.0,0.0
4.85,0.7628550858211877,0.17704379581734253,0.14590422783361667,458.55,0.0825477433134047,-0.6760637791590614,3.0,0.05,0.015,2.0,0.0,0.1,79.0,8.0,8.0,0.05,0.01,0.0,0.0,0.0,0.0,0.0,0.0,0.0,0.0,0.0,0.0,0.0,0.0
4.7,-0.3180177238130875,1.1690995482421072,1.1181948012330294,674.68,0.0825477433134047,-0.6760637791590614,2.7,0.08,0.015,0.2,0.05,0.15,75.0,13.0,0.0,0.0,0.0,0.03,7.0,0.002,2.0,0.0,0.0,0.0,0.0,0.0,0.0,0.0,0.0
4.65,0.49263688341261885,0.7181651153217596,0.5532151437171545,725.0,0.0825477433134047,-0.6760637791590614,5.0,0.0,0.0125,0.3,0.04,0.08,83.0,0.0,4.0,0.0,0.0,0.0,2.0,0.0,2.0,4.0,0.0,0.0,0.0,0.0,0.0,0.0,0.0
4.82,0.22241868100405007,1.1991618437701304,1.2758635428653666,550.0,0.5522670215565406,1.919036734920472,3.0,0.1,0.015,0.35,0.08,0.2,73.0,13.0,0.0,0.0,0.0,0.0,0.0,0.0,0.0,11.0,0.0,0.0,0.0,0.0,0.0,0.0,0.0
4.5,-0.047799521404518736,-1.9573791866723027,-2.4582578214604864,308.57,-0.034882076247379275,-0.23245685367538196,0.0,0.06,0.013,0.2,0.05,0.18,99.247,0.0,0.0,0.0,0.0,0.0,0.0,0.0,0.0,0.0,0.0,0.15,0.0,0.0,0.0,0.0,0.0
4.5,-0.047799521404518736,-1.9573791866723027,-2.4582578214604864,302.97,-0.034882076247379275,-0.23245685367538196,0.0,0.08,0.015,0.3,0.03,0.25,99.245,0.0,0.0,0.0,0.0,0.0,0.0,0.0,0.0,0.0,0.0,0.04,0.0,0.0,0.0,0.0,0.0
4.57,0.49263688341261885,0.11691920476129619,0.3298510930713434,330.0,-0.5046013544905151,-0.010653390933538339,6.3439999999999985,0.05949999999999997,0.014684999999999974,0.2309999999999999,0.04989999999999992,0.14390000000000014,84.38604999999993,0.0,1.4874999999999998,0.0,0.0,0.0,1.7780000000000016,0.0,3.155,0.0,0.06539999999999992,0.0,0.0,0.0,0.0,0.0,0.013999999999999999
4.65,0.49263688341261885,0.4476044555695511,0.5400760819144597,509.25,0.0825477433134047,-0.6760637791590614,5.0,0.0,0.0125,0.3,0.04,0.08,83.0,0.0,4.0,0.0,0.0,0.0,2.0,0.0,2.0,4.0,0.0,0.0,0.0,0.0,0.0,0.0,0.0
4.5,-0.047799521404518736,-1.7469431179761403,-2.4398631349367137,299.65,-0.034882076247379275,-0.23245685367538196,0.0,0.06,0.013,0.25,0.05,0.25,99.127,0.0,0.0,0.0,0.0,0.0,0.0,0.0,0.0,0.0,0.0,0.15,0.0,0.0,0.0,0.0,0.0
4.7,-0.3180177238130875,1.2292241392981536,1.0998001147092569,762.01,0.0825477433134047,-0.6760637791590614,2.7,0.08,0.015,0.2,0.05,0.15,75.0,13.0,0.0,0.0,0.0,0.03,7.0,0.005,2.0,0.0,0.0,0.0,0.0,0.0,0.0,0.0,0.0
5.009499999999997,-2.3176324216364965,-0.9352611387195148,-0.6161613567226798,253.4,0.04238674502361165,-0.2581860553534346,0.0,0.0,0.0,0.0,0.0,0.0,70.0,0.0,0.0,0.0,0.0,0.0,0.0,0.0,0.0,0.0,0.0,0.0,30.0,0.0,0.0,0.0,0.0
5.06,-1.5069778144107902,0.05679461370524985,-0.03804263740411007,259.31,0.4348372019957566,-1.2689444350679904,0.0,0.0,0.02,0.35,0.05,0.2,80.0,0.0,15.0,0.0,0.0,0.0,0.0,0.0,5.0,0.0,0.0,0.0,0.0,0.0,0.0,0.0,0.0
4.54,0.7628550858211877,0.26723068240141207,0.09334798062283761,255.44,-1.4440399109767856,-2.450491481093785,6.0,0.05,0.0125,0.25,0.05,0.12,88.0,0.0,2.0,0.0,0.0,0.0,0.0,0.0,4.0,0.0,0.0,0.0,0.0,0.0,0.0,0.0,0.0
4.82,-0.10184316188623249,0.6580405242657132,0.6451885763360179,275.0,-0.15231189580816326,-1.1196707046427408,3.0,0.05,0.0,0.3,0.03,0.14,75.0,8.0,4.0,0.0,0.0,0.0,0.0,0.0,4.0,6.0,0.0,0.0,0.0,0.0,0.0,0.0,0.0
4.7,-0.3180177238130875,1.0488503661300146,0.8554135651791341,688.87,0.0825477433134047,-0.6760637791590614,2.7,0.08,0.015,0.2,0.05,0.15,75.0,13.0,0.0,0.0,0.0,0.03,7.0,0.005,2.0,0.0,0.0,0.0,0.0,0.0,0.0,0.0,0.0
4.5,-0.047799521404518736,-1.7469431179761403,-2.4398631349367137,299.65,-0.034882076247379275,0.6547569972919807,0.0,0.06,0.013,0.25,0.05,0.25,99.377,0.0,0.0,0.0,0.0,0.0,0.0,0.0,0.0,0.0,0.0,0.0,0.0,0.0,0.0,0.0,0.0
4.65,0.11433140004062255,0.3273552734574584,0.3824073402821225,280.0,-0.5046013544905151,0.8765604600338204,6.0,0.04,0.0,0.25,0.03,0.14,86.0,0.0,2.0,0.0,0.0,0.0,2.0,0.0,2.0,2.0,0.25,0.0,0.0,0.0,0.0,0.0,0.0
4.48,0.7088114453394739,-0.036398502431621974,0.09334798062283761,265.55,-0.4024374114726288,0.4196453267856301,6.502499999999998,0.06979999999999995,0.013774999999999982,0.24810000000000007,0.04979999999999991,0.1562999999999999,88.67260000000002,0.0,1.3614999999999997,0.0,0.0,0.0,1.2805000000000002,0.0,1.7409999999999999,0.0,0.08069999999999991,0.0,0.0,0.3,0.0,0.0,0.2380000000000002
4.37,0.7628550858211877,0.026732318177226686,-0.098482321696506,689.0,-0.4576294266662016,0.4107731882759614,8.35,0.08,0.015,0.3,0.05,0.12,88.185,0.75,0.75,0.0,0.0,0.0,0.0,0.0,0.0,0.0,0.0,0.0,0.0,0.0,0.0,0.0,0.0
4.73,-0.047799521404518736,0.8083520019058291,0.8291354415737446,351.19,0.0825477433134047,-0.6760637791590614,2.5,0.08,0.015,0.2,0.05,0.15,77.5,12.0,0.0,0.0,0.0,0.03,2.0,0.005,6.0,0.0,0.0,0.0,0.0,0.0,0.0,0.0,0.0
4.69,0.8709423667846152,1.86053234538664,1.6437572733408201,799.25,-0.3167136431932608,-0.9400098998218352,5.0,0.0,0.0,1.0,0.0,0.0,82.0,0.0,4.0,0.0,0.0,0.0,2.0,0.0,4.0,2.0,0.0,0.0,0.0,0.0,0.0,0.0,0.0
4.48,0.22241868100405007,-0.5444512968552135,-0.5241879241038164,410.0,0.19997756287418866,0.5620431498658947,5.0,0.0,0.0,0.25,0.0,0.12,92.5,0.0,0.0,0.0,0.0,0.0,2.5,0.0,0.0,0.0,0.0,0.0,0.0,0.0,0.0,0.0,0.0
4.82,0.11433140004062255,-1.83713000456021,-0.2219895026418368,318.85,0.0825477433134047,-0.6760637791590614,2.0,0.08,0.015,0.2,0.05,0.15,73.5,11.5,0.0,0.0,0.0,0.03,2.0,0.005,11.0,0.0,0.0,0.0,0.0,0.0,0.0,0.0,0.0
4.48,0.49263688341261885,-0.3039529326310282,-0.11687700822027867,206.7,0.7166687689416381,0.432953534550141,6.0,0.03,0.1,0.12,0.02,0.1,90.0,0.0,0.8,0.0,0.0,0.0,0.0,0.0,0.0,0.0,0.0,0.0,1.0,2.0,0.0,0.0,0.0
4.5,-5.181945367167326,0.026732318177226686,0.09334798062283761,250.0,0.0825477433134047,0.432953534550141,6.0,0.0,0.0,0.0,0.0,0.0,87.0,0.0,0.4,0.0,0.0,0.0,2.7,0.0,4.0,0.0,0.4,0.0,0.0,0.0,0.0,0.0,0.0
4.76,-0.3180177238130875,1.0488503661300146,1.0656385540222504,529.73,-0.5046013544905151,-0.6760637791590614,3.0,0.0,0.0,0.0,0.0,0.0,76.0,15.0,0.0,0.0,0.0,0.0,3.0,0.0,0.0,3.0,0.0,0.0,0.0,0.0,0.0,0.0,0.0
4.48,-0.5055491562846343,-1.5695755743608037,-1.2731144468574183,335.14,0.019370500389703674,0.3963559631977399,3.0,0.0,0.0,0.0,0.0,0.0,94.5,2.5,0.0,0.0,0.0,0.0,0.0,0.0,0.0,0.0,0.0,0.0,0.0,0.0,0.0,0.0,0.0
4.54,0.5466805238943326,0.08685690923327302,0.06706985701744808,202.84,3.018293232333001,0.5283290235291347,6.0,0.05,0.015,0.35,0.04,0.2,83.195,5.0,0.0,0.0,0.0,0.0,1.5,0.0,0.0,0.0,0.0,0.0,0.0,0.0,0.35,0.0,0.0
4.54,0.22241868100405007,-2.4293572264622663,0.14590422783361667,170.0,-0.3249337305625174,-0.6760637791590614,4.5,0.0,0.0,0.0,0.0,0.0,89.0,0.0,5.0,0.0,0.0,0.0,0.0,0.0,0.0,1.5,0.0,0.0,0.0,0.0,0.0,0.0,0.0
4.82,0.22241868100405007,0.597915933209667,0.5137979583090702,220.0,0.5522670215565406,1.919036734920472,3.0,0.1,0.015,0.35,0.08,0.2,73.0,13.0,0.0,0.0,0.0,0.0,0.0,0.0,0.0,11.0,0.0,0.0,0.0,0.0,0.0,0.0,0.0
4.65,-0.20993044284966,0.11691920476129619,0.014513609806669003,890.0,0.0825477433134047,1.9855777737430227,3.4,0.05,0.015,1.6,0.05,0.13,82.855,9.0,0.0,0.0,0.0,0.0,0.0,0.0,0.0,0.0,0.0,0.0,0.0,0.0,0.0,0.0,0.0
4.69,0.8709423667846152,0.9286011840179218,0.802857317968355,875.0,-0.3167136431932608,-1.053129665820178,5.0,0.0,0.0,1.0,0.0,0.0,82.0,0.0,4.0,0.0,0.0,0.0,2.0,0.0,4.0,2.0,0.0,0.0,0.0,0.0,0.0,0.0,0.0
4.73,-0.047799521404518736,0.7181651153217596,0.5926323291252388,220.0,0.0825477433134047,-0.6760637791590614,2.5,0.08,0.015,0.2,0.05,0.15,77.5,12.0,0.0,0.0,0.0,0.03,2.0,0.005,6.0,0.0,0.0,0.0,0.0,0.0,0.0,0.0,0.0
4.82,0.11433140004062255,1.139037252714084,1.0919166776276399,400.0,0.0825477433134047,-0.6760637791590614,2.0,0.08,0.015,0.2,0.05,0.15,73.5,11.5,0.0,0.0,0.0,0.03,2.0,0.005,11.0,0.0,0.0,0.0,0.0,0.0,0.0,0.0,0.0
4.37,0.9790296477480427,-2.4594195219902897,-2.3242393910729997,620.0,-0.4576294266662016,0.24220255659216544,8.35,0.08,0.015,0.3,0.05,0.12,88.185,0.75,0.75,0.0,0.0,0.0,0.0,0.0,0.0,0.0,0.0,0.0,0.0,0.0,0.0,0.0,0.0
4.53,0.49263688341261885,0.3123241256934468,0.3035729694659539,490.0,2.7587733311036766,0.3690741372804901,6.0,0.0,0.0,0.5,0.0,0.0,85.0,6.0,0.0,0.0,0.0,0.0,2.0,0.0,0.0,0.0,0.0,0.0,0.0,0.0,0.5,0.0,0.0
4.54,0.23863177314856404,0.23716838687338887,0.19846047504439576,140.0,3.4880125105761373,0.432953534550141,6.0,0.05,0.015,0.35,0.04,0.2,82.895,5.0,0.0,0.0,0.0,0.0,1.5,0.0,0.0,0.0,0.0,0.0,0.0,0.0,0.35,0.0,0.0
4.65,0.4385932429309051,0.4476044555695511,0.5926323291252388,275.2,-0.5046013544905151,-0.540763666886523,6.0,0.04,0.0,0.15,0.04,0.12,82.0,0.0,6.0,0.0,0.0,0.0,2.0,0.0,4.0,0.0,0.0,0.0,0.0,0.0,0.0,0.0,0.0
4.5,-0.047799521404518736,-1.9573791866723027,-2.4582578214604864,308.57,-0.034882076247379275,-0.23245685367538196,0.0,0.06,0.013,0.2,0.05,0.18,99.497,0.0,0.0,0.0,0.0,0.0,0.0,0.0,0.0,0.0,0.0,0.0,0.0,0.0,0.0,0.0,0.0
4.5,-0.047799521404518736,-2.1678152553684646,-2.484535945065876,315.08,-0.034882076247379275,-0.23245685367538196,0.0,0.06,0.013,0.15,0.05,0.12,99.607,0.0,0.0,0.0,0.0,0.0,0.0,0.0,0.0,0.0,0.0,0.0,0.0,0.0,0.0,0.0,0.0
4.65,0.4385932429309051,0.4175421600415279,0.3824073402821225,260.0,-0.5046013544905151,-0.4365160393978606,6.0,0.04,0.0,0.15,0.04,0.12,82.0,0.0,6.0,0.0,0.0,0.0,2.0,0.0,4.0,0.0,0.0,0.0,0.0,0.0,0.0,0.0,0.0
4.5,0.5466805238943326,-2.2880644374805574,-1.9826237842029357,307.3,0.15300563504987508,0.21115007180830134,0.0,0.0,0.0,0.0,0.0,0.0,100.0,0.0,0.0,0.0,0.0,0.0,0.0,0.0,0.0,0.0,0.0,0.0,0.0,0.0,0.0,0.0,0.0
4.65,0.4385932429309051,0.35741756898548155,0.356129216676733,290.0,-0.5046013544905151,-0.3877192775946591,6.0,0.04,0.0,0.15,0.04,0.12,82.0,0.0,6.0,0.0,0.0,0.0,2.0,0.0,4.0,0.0,0.0,0.0,0.0,0.0,0.0,0.0,0.0
4.51,-5.181945367167326,-0.9953857297755612,-0.6555785421307642,360.0,-0.22300464718375673,0.30120227768149144,0.0,0.0,0.0,0.0,0.0,0.0,100.0,0.0,0.0,0.0,0.0,0.0,0.0,0.0,0.0,0.0,0.0,0.0,0.0,0.0,0.0,0.0,0.0
4.37,0.8168987263029014,0.08685690923327302,0.06706985701744808,170.0,-0.4576294266662016,0.4839683309807597,8.35,0.08,0.015,0.3,0.05,0.12,88.185,0.75,0.75,0.0,0.0,0.0,0.0,0.0,0.0,0.0,0.0,0.0,0.0,0.0,0.0,0.0,0.0
4.82,0.11433140004062255,0.597915933209667,0.5663542055198493,286.94,0.0825477433134047,-0.6760637791590614,2.0,0.08,0.015,0.2,0.05,0.15,73.5,11.5,0.0,0.0,0.0,0.03,2.0,0.005,11.0,0.0,0.0,0.0,0.0,0.0,0.0,0.0,0.0
4.73,-0.047799521404518736,0.7181651153217596,0.5663542055198493,297.9,0.0825477433134047,-0.6760637791590614,2.5,0.08,0.015,0.2,0.05,0.15,77.5,12.0,0.0,0.0,0.0,0.03,2.0,0.005,6.0,0.0,0.0,0.0,0.0,0.0,0.0,0.0,0.0
4.69,0.8709423667846152,1.7402831632745475,1.538644778919262,799.25,-0.3167136431932608,-0.9400098998218352,5.0,0.0,0.0,1.0,0.0,0.0,82.0,0.0,4.0,0.0,0.0,0.0,2.0,0.0,4.0,2.0,0.0,0.0,0.0,0.0,0.0,0.0,0.0
4.65,0.22241868100405007,0.08685690923327302,0.06706985701744808,539.6,0.0825477433134047,1.9855777737430227,3.4,0.05,0.015,1.6,0.05,0.13,82.855,9.0,0.0,0.0,0.0,0.0,0.0,0.0,0.0,0.0,0.0,0.0,0.0,0.0,0.0,0.0,0.0
4.82,-0.3720613642948013,-0.21376604604695867,0.04079173341205854,178.33,0.5522670215565406,1.919036734920472,3.0,0.1,0.015,0.35,0.08,0.2,73.0,13.0,0.0,0.0,0.0,0.0,0.0,0.0,0.0,11.0,0.0,0.0,0.0,0.0,0.0,0.0,0.0
4.73,0.49263688341261885,-0.27389063710300504,-0.19571137903644728,210.0,-0.6220311740512992,-0.45426031641722164,0.0,0.2,0.015,0.0,0.07,0.2,92.0,0.0,0.0,0.0,0.0,0.0,0.0,0.0,0.0,0.0,0.0,0.0,0.0,0.0,0.0,8.0,0.0
4.6,0.6007241643760464,-0.093516863934866,-2.2716831438622207,270.67,-0.24508145326118272,1.1626869269708016,5.0,0.08,0.015,0.2,0.05,0.25,86.205,0.0,3.0,0.0,0.0,0.0,1.5,0.0,0.0,0.0,0.3,0.0,0.0,0.0,0.0,0.0,0.0
4.76,-1.2908032524839352,-0.3941398192150977,-0.4847707386957322,257.08,-0.5046013544905151,-0.6760637791590614,3.0,0.0,0.0,0.0,0.0,0.0,76.0,15.0,0.0,0.0,0.0,0.0,3.0,0.0,0.0,3.0,0.0,0.0,0.0,0.0,0.0,0.0,0.0
4.48,0.49263688341261885,-0.5745135923832367,-0.37965824427417405,170.0,0.7166687689416381,0.432953534550141,6.0,0.03,0.1,0.12,0.02,0.1,90.0,0.0,0.8,0.0,0.0,0.0,0.0,0.0,0.0,0.0,0.0,0.0,1.0,2.0,0.0,0.0,0.0
4.65,0.22241868100405007,0.08685690923327302,0.06706985701744808,539.6,0.0825477433134047,1.9855777737430227,3.4,0.05,0.015,1.6,0.05,0.13,82.855,9.0,0.0,0.0,0.0,0.0,0.0,0.0,0.0,0.0,0.0,0.0,0.0,0.0,0.0,0.0,0.0
4.82,0.11433140004062255,0.8384142974338523,0.8291354415737446,337.44,0.0825477433134047,-0.6760637791590614,2.0,0.08,0.015,0.2,0.05,0.15,73.5,11.5,0.0,0.0,0.0,0.03,2.0,0.005,11.0,0.0,0.0,0.0,0.0,0.0,0.0,0.0,0.0
4.56,-0.047799521404518736,-0.9502922864835264,-0.5373269859065113,200.0,0.0825477433134047,0.4773142270985082,0.0,0.08,0.01,0.2,0.05,0.2,96.06,0.0,0.0,0.0,0.0,0.0,0.0,0.0,0.0,0.0,0.0,0.0,0.0,0.0,2.0,0.0,0.0
4.82,0.11433140004062255,0.6279782287376902,0.5926323291252388,286.94,0.0825477433134047,-0.6760637791590614,2.0,0.08,0.015,0.2,0.05,0.15,73.5,11.5,0.0,0.0,0.0,0.03,2.0,0.005,11.0,0.0,0.0,0.0,0.0,0.0,0.0,0.0,0.0
4.65,0.4385932429309051,0.6580405242657132,0.6189104527306283,250.0,-0.5046013544905151,-0.5318915283768464,6.0,0.04,0.0,0.15,0.04,0.12,82.0,0.0,6.0,0.0,0.0,0.0,2.0,0.0,4.0,0.0,0.0,0.0,0.0,0.0,0.0,0.0,0.0
4.36,1.0330732882297564,0.08685690923327302,0.11962610422822714,460.0,-0.09453642458425977,0.6281405817629627,8.0,0.0,0.0,0.0,0.0,0.0,90.0,1.0,1.0,0.0,0.0,0.0,0.0,0.0,0.0,0.0,0.0,0.0,0.0,0.0,0.0,0.0,0.0
6.45,-1.6691087358559316,-1.0254480253035843,-2.363656576481084,253.35,-4.732074858678734,-0.3560013824225868,0.0,0.0,0.0,0.0,0.0,0.0,45.0,0.0,0.0,55.0,0.0,0.0,0.0,0.0,0.0,0.0,0.0,0.0,0.0,0.0,0.0,0.0,0.0
4.45,1.0330732882297564,-0.06345456840684283,-0.0643207610094996,466.87,-0.43132514708458314,-0.5939964979445668,6.3,0.08,0.015,0.2,0.05,0.19,86.015,0.0,0.25,0.0,0.0,0.0,0.0,0.0,4.0,0.0,0.1,0.0,0.0,0.0,0.0,0.0,0.0
4.76,-0.3180177238130875,0.9286011840179218,0.9605260596006923,549.53,-0.5046013544905151,-0.6760637791590614,3.0,0.0,0.0,0.0,0.0,0.0,76.0,15.0,0.0,0.0,0.0,0.0,3.0,0.0,0.0,3.0,0.0,0.0,0.0,0.0,0.0,0.0,0.0
4.48,0.6007241643760464,-0.42420211474312086,-0.37965824427417405,205.5,0.7166687689416381,0.432953534550141,6.0,0.03,0.1,0.12,0.02,0.1,90.0,0.0,0.8,0.0,0.0,0.0,0.0,0.0,0.0,0.0,0.0,0.0,1.0,2.0,0.0,0.0,0.0
4.48,0.4277845148345622,-0.5143890013271903,-0.37965824427417405,207.4,0.6696968411173245,0.432953534550141,6.0,0.0,0.0,0.0,0.0,0.0,90.0,0.0,1.0,0.0,0.0,0.0,0.0,0.0,0.0,0.0,0.0,0.0,1.0,2.0,0.0,0.0,0.0
5.25,-2.366271698070039,-1.6717873791560824,-0.38754168135579087,299.18,0.24812378889409953,-0.7377251418012871,1.7470000000000006,0.05089999999999995,0.06752999999999991,0.2621000000000001,0.04999999999999991,0.1433000000000001,77.13110000000005,4.88,4.3420000000000005,0.0,0.0,0.0,0.9185,0.0,3.286,0.65,0.0212,0.0,6.46,8.8,0.0,0.0,0.0
4.54,0.6007241643760464,0.9286011840179218,0.802857317968355,210.0,3.4880125105761373,-0.45426031641722164,6.0,0.05,0.015,0.35,0.04,0.2,82.895,5.0,0.0,0.0,0.0,0.0,1.5,0.0,0.0,0.0,0.0,0.0,0.0,0.0,0.35,0.0,0.0
4.43,0.7628550858211877,0.35741756898548155,-0.06169294864896065,600.0,-0.16452459704248135,0.7106514699029243,6.0,0.03,0.003,0.1,0.01,0.15,89.734,4.0,0.0,0.0,0.0,0.0,0.0,0.0,0.0,0.0,0.0,0.0,0.0,0.0,0.0,0.0,0.0
4.48,-0.047799521404518736,0.06881953191645912,0.14590422783361667,247.36,0.050841692032001756,0.3524388775748515,2.933500000000001,0.07379999999999996,0.01311499999999999,0.23269999999999988,0.04969999999999991,0.1669999999999998,92.81645000000002,0.0,0.055,0.0,0.0,0.0,0.17600000000000002,0.0,0.0,0.0,0.005,0.0,0.0,0.0,0.0,0.0,0.0
4.56,-0.047799521404518736,-1.2659463895277696,-0.9314988399873543,280.0,0.0825477433134047,0.4773142270985082,0.0,0.08,0.01,0.2,0.05,0.2,96.06,0.0,0.0,0.0,0.0,0.0,0.0,0.0,0.0,0.0,0.0,0.0,0.0,0.0,2.0,0.0,0.0
4.82,0.11433140004062255,0.8985388884898986,0.8816916887845236,345.0,0.0825477433134047,-0.6760637791590614,2.0,0.08,0.015,0.2,0.05,0.15,73.5,11.5,0.0,0.0,0.0,0.03,2.0,0.005,11.0,0.0,0.0,0.0,0.0,0.0,0.0,0.0,0.0
4.82,-0.10184316188623249,1.5599093901064085,1.3809760372869249,665.3,-0.15231189580816326,-0.23245685367538196,3.0,0.05,0.0,0.3,0.03,0.14,75.0,8.0,4.0,0.0,0.0,0.0,0.0,0.0,4.0,6.0,0.0,0.0,0.0,0.0,0.0,0.0,0.0
4.69,0.8709423667846152,1.1991618437701304,1.0393604304168609,910.0,-0.3167136431932608,-1.053129665820178,5.0,0.0,0.0,1.0,0.0,0.0,82.0,0.0,4.0,0.0,0.0,0.0,2.0,0.0,4.0,2.0,0.0,0.0,0.0,0.0,0.0,0.0,0.0
4.65,0.006244119077195027,0.8985388884898986,0.6977448235467969,450.0,0.0825477433134047,1.9855777737430227,3.4,0.05,0.015,1.6,0.05,0.13,82.855,9.0,0.0,0.0,0.0,0.0,0.0,0.0,0.0,0.0,0.0,0.0,0.0,0.0,0.0,0.0,0.0
4.65,0.22241868100405007,1.0187880706019914,1.1970291720491981,450.0,0.0825477433134047,1.9855777737430227,3.4,0.05,0.015,1.6,0.05,0.13,82.855,9.0,0.0,0.0,0.0,0.0,0.0,0.0,0.0,0.0,0.0,0.0,0.0,0.0,0.0,0.0,0.0
4.69,0.8709423667846152,0.17704379581734253,0.1721823514390062,524.0,1.3742757584820258,-0.9169423396966903,5.0,0.0,0.0,1.0,0.0,0.0,82.0,0.0,4.0,0.0,0.0,0.0,2.0,0.0,4.0,2.0,0.0,0.0,0.0,0.0,0.0,0.0,0.0
4.82,-0.10184316188623249,0.8083520019058291,0.6977448235467969,240.0,-0.15231189580816326,-1.1196707046427408,3.0,0.05,0.0,0.3,0.03,0.14,75.0,8.0,4.0,0.0,0.0,0.0,0.0,0.0,4.0,6.0,0.0,0.0,0.0,0.0,0.0,0.0,0.0
4.82,0.11433140004062255,1.0488503661300146,1.0919166776276399,503.3,0.0825477433134047,-0.6760637791590614,2.0,0.08,0.015,0.2,0.05,0.15,73.5,11.5,0.0,0.0,0.0,0.03,2.0,0.005,11.0,0.0,0.0,0.0,0.0,0.0,0.0,0.0,0.0
4.55,0.7628550858211877,0.07182576146926144,0.19846047504439576,340.0,0.0825477433134047,3.981808938419588,5.8,0.0,0.0,0.0,0.0,0.0,85.0,0.0,0.5,0.0,0.0,0.0,4.0,0.0,3.5,0.0,0.35,0.0,0.0,0.7,0.0,0.0,0.0
4.48,0.49263688341261885,-0.3340152281590514,-0.19571137903644728,206.0,0.7166687689416381,0.8765604600338204,6.0,0.03,0.1,0.12,0.02,0.1,90.0,0.0,0.8,0.0,0.0,0.0,0.0,0.0,0.0,0.0,0.0,0.0,1.0,2.0,0.0,0.0,0.0
4.54,0.33050596196747756,0.40251101227751634,0.3298510930713434,190.0,3.4880125105761373,1.3201673855175038,6.0,0.05,0.015,0.35,0.04,0.2,82.895,5.0,0.0,0.0,0.0,0.0,1.5,0.0,0.0,0.0,0.0,0.0,0.0,0.0,0.35,0.0,0.0
5.7,-2.3689738800941247,-1.2659463895277696,-1.1259569546672368,249.65,-1.3350650384243774,-0.36398630708129415,0.0,0.0,0.0,0.0,0.0,0.0,55.0,0.0,0.0,0.0,0.0,0.0,0.0,0.0,0.0,0.0,0.0,0.0,0.0,45.0,0.0,0.0,0.0
4.51,0.4277845148345622,-0.0033299773507964865,-0.011764513798720531,235.45,-0.5046013544905151,0.432953534550141,5.0,0.0,0.0,0.0,0.0,0.0,91.0,0.0,2.0,0.0,0.0,0.0,0.0,0.0,2.0,0.0,0.25,0.0,0.0,0.0,0.0,0.0,0.0
4.5,0.49263688341261885,0.11691920476129619,0.1721823514390062,285.08,0.0825477433134047,0.432953534550141,6.0,0.0,0.0,0.0,0.0,0.0,89.0,0.0,1.0,0.0,0.0,0.0,2.0,0.0,1.5,0.0,0.1,0.0,0.0,0.0,0.0,0.0,0.35
4.76,-0.3180177238130875,0.3273552734574584,0.356129216676733,170.0,-0.5046013544905151,-0.6760637791590614,3.0,0.0,0.0,0.0,0.0,0.0,76.0,15.0,0.0,0.0,0.0,0.0,3.0,0.0,0.0,3.0,0.0,0.0,0.0,0.0,0.0,0.0,0.0
4.43,0.22241868100405007,-0.21376604604695867,-0.19571137903644728,426.96,0.9045564802388925,0.6784899678053614,6.75,0.08,0.015,0.3,0.05,0.2,88.105,3.5,0.0,0.0,0.0,0.0,0.0,0.0,0.0,0.0,0.0,0.0,0.0,0.0,0.0,0.0,0.0
6.45,-4.209159838496478,-2.4083136195926502,-2.363656576481084,260.9,-4.732074858678734,-0.36930959018709775,0.0,0.0,0.0,0.0,0.0,0.0,45.0,0.0,0.0,55.0,0.0,0.0,0.0,0.0,0.0,0.0,0.0,0.0,0.0,0.0,0.0,0.0,0.0
4.53,0.49263688341261885,0.6129470809736786,0.6057713909279335,432.09,2.7587733311036766,0.20227793329862476,6.0,0.0,0.0,0.5,0.0,0.0,85.0,6.0,0.0,0.0,0.0,0.0,2.0,0.0,0.0,0.0,0.0,0.0,0.0,0.0,0.5,0.0,0.0
4.65,0.4385932429309051,1.5298470945783853,1.591201026130041,726.1,-0.5046013544905151,-0.4076815892414137,6.0,0.04,0.0,0.15,0.04,0.12,82.0,0.0,6.0,0.0,0.0,0.0,2.0,0.0,4.0,0.0,0.0,0.0,0.0,0.0,0.0,0.0,0.0
4.82,0.11433140004062255,-1.7168808224481171,-0.2219895026418368,314.85,0.0825477433134047,-0.6760637791590614,2.0,0.08,0.015,0.2,0.05,0.15,73.5,11.5,0.0,0.0,0.0,0.03,2.0,0.005,11.0,0.0,0.0,0.0,0.0,0.0,0.0,0.0,0.0
4.5,-0.047799521404518736,-2.1678152553684646,-2.484535945065876,315.08,-0.034882076247379275,-0.23245685367538196,0.0,0.06,0.013,0.15,0.05,0.12,99.357,0.0,0.0,0.0,0.0,0.0,0.0,0.0,0.0,0.0,0.0,0.15,0.0,0.0,0.0,0.0,0.0
4.48,0.27646232148576383,0.2071060913453657,0.14590422783361667,231.58,-0.15231189580816326,0.432953534550141,7.0,0.1,0.013,0.3,0.05,0.2,89.0,0.0,4.0,0.0,0.0,0.0,0.0,0.0,0.0,0.0,0.0,0.0,0.0,0.0,0.0,0.0,0.0
4.51,-0.3180177238130875,-1.2509152417637581,-0.9288710276268153,332.28,-0.005289761718050401,0.432953534550141,3.5,0.1,0.013,0.25,0.2,0.12,92.8,2.0,0.0,0.0,0.0,0.0,0.0,0.0,0.0,0.0,0.0,0.0,0.0,0.0,0.0,0.0,0.0
4.85,-1.07462869055708,-0.12357915946288917,-0.2219895026418368,550.22,0.0825477433134047,-0.6760637791590614,3.0,0.05,0.015,2.0,0.0,0.1,79.0,8.0,8.0,0.05,0.01,0.0,0.0,0.0,0.0,0.0,0.0,0.0,0.0,0.0,0.0,0.0,0.0
4.37,0.7628550858211877,-0.0033299773507964865,0.11962610422822714,352.58,-0.4576294266662016,0.4640060193340051,8.35,0.08,0.015,0.3,0.05,0.12,88.185,0.75,0.75,0.0,0.0,0.0,0.0,0.0,0.0,0.0,0.0,0.0,0.0,0.0,0.0,0.0,0.0
4.73,-0.047799521404518736,0.8985388884898986,0.802857317968355,449.44,0.0825477433134047,-0.6760637791590614,2.5,0.08,0.015,0.2,0.05,0.15,77.5,12.0,0.0,0.0,0.0,0.03,2.0,0.005,6.0,0.0,0.0,0.0,0.0,0.0,0.0,0.0,0.0
4.85,0.7628550858211877,0.7482274108497828,0.5926323291252388,407.85,0.0825477433134047,-0.6760637791590614,3.0,0.05,0.015,2.0,0.0,0.1,79.0,8.0,8.0,0.05,0.01,0.0,0.0,0.0,0.0,0.0,0.0,0.0,0.0,0.0,0.0,0.0,0.0
4.8,0.38454960244919134,0.958663479545945,0.8554135651791341,389.15,-0.3275171865928559,-0.6716277099042269,3.0,0.0,0.0,0.0,0.0,0.0,85.0,5.0,5.0,0.0,0.0,0.0,0.0,0.0,0.0,2.0,0.0,0.0,0.0,0.0,0.0,0.0,0.0
4.82,0.22241868100405007,0.7181651153217596,0.6189104527306283,120.0,0.5522670215565406,1.9855777737430227,3.0,0.1,0.015,0.35,0.08,0.2,73.0,13.0,0.0,0.0,0.0,0.0,0.0,0.0,0.0,11.0,0.0,0.0,0.0,0.0,0.0,0.0,0.0
5.025799999999997,-1.9393269382645002,-1.2058217984717232,-0.721273851144238,256.4,-0.025252831043397105,-0.24354702681247178,0.0,0.0,0.0,0.0,0.0,0.0,70.0,0.0,0.0,0.0,0.0,0.0,0.0,0.0,0.0,0.0,0.0,0.0,0.0,30.0,0.0,0.0,0.0
4.65,0.8709423667846152,0.7181651153217596,0.802857317968355,290.0,-0.5046013544905151,1.3201673855175038,6.0,0.04,0.0,0.25,0.03,0.14,86.0,0.0,2.0,0.0,0.0,0.0,2.0,0.0,2.0,2.0,0.25,0.0,0.0,0.0,0.0,0.0,0.0
4.5,-0.15588680236794625,-1.6717873791560824,-1.2993925704628078,281.95,-0.034882076247379275,1.098363922775664,0.0,0.06,0.013,0.25,0.25,0.25,97.877,0.0,0.2,0.6,0.0,0.0,0.0,0.0,0.0,0.0,0.0,0.0,0.0,0.0,0.0,0.0,0.0
4.7,-0.047799521404518736,0.597915933209667,0.4612417110982911,343.48,0.0825477433134047,-0.6760637791590614,2.7,0.08,0.015,0.2,0.05,0.15,75.0,13.0,0.0,0.0,0.0,0.03,7.0,0.005,2.0,0.0,0.0,0.0,0.0,0.0,0.0,0.0,0.0
4.5,0.49263688341261885,0.08685690923327302,0.14590422783361667,293.13,0.0825477433134047,0.432953534550141,6.0,0.0,0.0,0.0,0.0,0.0,89.0,0.0,1.0,0.0,0.0,0.0,2.5,0.0,1.5,0.0,0.1,0.0,0.0,0.0,0.0,0.0,0.35
4.54,0.4277845148345622,-0.12357915946288917,-0.09059888461488914,280.0,-1.4440399109767856,-2.450491481093785,6.0,0.05,0.0125,0.25,0.05,0.12,86.0,0.0,2.0,0.0,0.0,0.0,2.0,0.0,4.0,0.0,0.0,0.0,0.0,0.0,0.0,0.0,0.0
4.48,0.5358717957979897,-0.42420211474312086,-0.30082387345800543,170.0,0.6696968411173245,0.8765604600338204,6.0,0.0,0.0,0.0,0.0,0.0,90.0,0.0,1.0,0.0,0.0,0.0,0.0,0.0,0.0,0.0,0.0,0.0,1.0,2.0,0.0,0.0,0.0
4.54,0.6547678048577601,0.4476044555695511,0.356129216676733,225.0,-1.4440399109767856,-0.4076815892414176,6.5,0.05,0.015,0.25,0.05,0.15,83.785,0.0,1.8,0.0,0.0,0.0,1.8,0.0,3.6,0.0,0.06,0.0,0.0,0.0,0.0,0.0,0.0
4.7,-0.3180177238130875,1.3795356169382693,1.1707510484438086,840.0,0.0825477433134047,-0.6760637791590614,2.7,0.08,0.015,0.2,0.05,0.15,75.0,13.0,0.0,0.0,0.0,0.03,7.0,0.005,2.0,0.0,0.0,0.0,0.0,0.0,0.0,0.0,0.0
4.55,0.4385932429309051,-0.24382834157498184,-0.2219895026418368,285.21,-1.0116633153539707,-0.30188133751355806,6.5,0.05,0.015,0.25,0.05,0.15,84.065,0.0,1.8,0.0,0.0,0.0,1.8,0.0,3.6,0.0,0.06,0.0,0.0,0.0,0.0,0.0,0.0
4.65,0.8709423667846152,0.2071060913453657,0.14590422783361667,294.25,-0.5046013544905151,1.3201673855175038,6.0,0.04,0.0,0.25,0.03,0.14,86.0,0.0,2.0,0.0,0.0,0.0,2.0,0.0,2.0,2.0,0.25,0.0,0.0,0.0,0.0,0.0,0.0
4.82,-0.3720613642948013,-0.12357915946288917,-0.0643207610094996,140.0,0.5522670215565406,1.9855777737430227,3.0,0.1,0.015,0.35,0.08,0.2,73.0,13.0,0.0,0.0,0.0,0.0,0.0,0.0,0.0,11.0,0.0,0.0,0.0,0.0,0.0,0.0,0.0
5.06,0.11433140004062255,0.8985388884898986,0.6977448235467969,380.0,0.0825477433134047,-2.6722949438356265,0.0,0.08,0.02,0.35,0.05,0.18,86.27,0.0,0.0,0.0,0.0,0.0,3.75,0.0,4.5,0.0,0.0,0.0,0.0,0.0,0.0,0.0,0.0
4.84,0.49263688341261885,-0.06345456840684283,0.14590422783361667,110.0,-0.5046013544905151,-0.600650601826834,2.25,0.0,0.0,0.0,0.0,0.0,81.0,0.0,1.0,0.0,0.0,0.0,11.0,0.0,5.0,0.0,0.25,0.0,0.0,0.0,0.0,0.0,0.0
4.85,-0.64227956670337,0.4175421600415279,0.3298510930713434,466.1,0.0825477433134047,-0.6760637791590614,3.0,0.05,0.015,2.0,0.0,0.1,79.0,8.0,8.0,0.05,0.01,0.0,0.0,0.0,0.0,0.0,0.0,0.0,0.0,0.0,0.0,0.0,0.0
4.73,-0.047799521404518736,0.8083520019058291,0.6714666999414074,309.32,0.0825477433134047,-0.6760637791590614,2.5,0.08,0.015,0.2,0.05,0.15,77.5,12.0,0.0,0.0,0.0,0.03,2.0,0.005,6.0,0.0,0.0,0.0,0.0,0.0,0.0,0.0,0.0
4.37,0.7628550858211877,0.5077290466255974,0.5400760819144597,342.3,-0.4576294266662016,0.3730665996098497,8.35,0.08,0.015,0.3,0.05,0.12,88.185,0.75,0.75,0.0,0.0,0.0,0.0,0.0,0.0,0.0,0.0,0.0,0.0,0.0,0.0,0.0,0.0
4.85,0.7628550858211877,0.9887257750739682,1.0656385540222504,210.0,0.0825477433134047,-0.6760637791590614,3.0,0.05,0.015,2.0,0.0,0.1,79.0,8.0,8.0,0.05,0.01,0.0,0.0,0.0,0.0,0.0,0.0,0.0,0.0,0.0,0.0,0.0,0.0
4.48,0.4277845148345622,0.40251101227751634,0.5137979583090702,240.0,-0.15231189580816326,0.432953534550141,7.0,0.1,0.013,0.3,0.05,0.2,89.0,0.0,4.0,0.0,0.0,0.0,0.0,0.0,0.0,0.0,0.0,0.0,0.0,0.0,0.0,0.0,0.0
4.5,-0.047799521404518736,-2.1678152553684646,-2.484535945065876,304.37,-0.034882076247379275,-0.23245685367538196,0.0,0.08,0.015,0.2,0.03,0.18,99.415,0.0,0.0,0.0,0.0,0.0,0.0,0.0,0.0,0.0,0.0,0.04,0.0,0.0,0.0,0.0,0.0
